<?xml version="1.0" encoding="utf-8"?>
<!-- Generator: Adobe Illustrator 16.0.0, SVG Export Plug-In . SVG Version: 6.00 Build 0)  -->
<!DOCTYPE svg PUBLIC "-//W3C//DTD SVG 1.1//EN" "http://www.w3.org/Graphics/SVG/1.1/DTD/svg11.dtd">
<svg version="1.1" id="Layer_1" xmlns="http://www.w3.org/2000/svg" xmlns:xlink="http://www.w3.org/1999/xlink" x="0px" y="0px"
	 width="460px" height="260px" viewBox="0 0 460 260" enable-background="new 0 0 460 260" xml:space="preserve">
<g opacity="0.6">
	<path fill="#0095FF" d="M79.204,224.21c-2.341,0.67-4.886,0.677-7.215-0.187c-2.339-0.855-4.234-2.729-5.38-4.903
		c-1.17-2.181-1.774-4.591-2.104-6.992c-0.311-2.415-0.42-4.81-0.419-7.224c0.073-9.637,1.539-19.151,3.349-28.545
		c1.833-9.398,4.076-18.703,6.522-27.947c2.455-9.242,5.095-18.434,7.981-27.547c2.866-9.119,5.877-18.19,9.038-27.214
		c1.584-4.512,3.197-9.009,4.899-13.494c0.429-1.123,0.858-2.24,1.322-3.373c0.486-1.164,0.958-2.215,1.455-3.33
		c0.987-2.199,2.034-4.387,3.158-6.535c4.471-8.625,10.222-16.509,16.562-23.764c3.18-3.62,6.463-7.153,9.992-10.466
		c3.513-3.312,7.172-6.45,10.946-9.442c7.562-5.957,15.592-11.353,24.217-15.74c4.32-2.169,8.806-4.08,13.531-5.37
		c2.362-0.638,4.788-1.113,7.267-1.295c2.474-0.174,5.021-0.056,7.486,0.619c2.444,0.664,4.837,1.911,6.625,3.825
		c1.794,1.893,2.93,4.252,3.63,6.636c1.372,4.813,1.308,9.754,0.898,14.547c-0.922,9.62-3.41,18.924-6.269,28.045
		c-5.766,18.263-13.583,35.745-21.467,53.121c-8.019,17.328-16.25,34.578-25.589,51.281c-4.675,8.345-9.582,16.582-15.16,24.427
		c-5.609,7.785-11.538,15.302-17.765,22.591c-6.23,7.28-12.723,14.355-19.716,20.979c-3.501,3.307-7.133,6.498-11.026,9.421
		c-3.912,2.889-8.001,5.664-12.887,7.372c-1.229,0.407-2.516,0.737-3.885,0.879c-1.362,0.142-2.826,0.097-4.272-0.326
		c-1.444-0.411-2.816-1.239-3.855-2.305c-1.048-1.063-1.799-2.302-2.347-3.546c-1.089-2.508-1.515-5.061-1.753-7.553
		c-0.226-2.408-0.376-4.83-0.472-7.242c-0.365-9.653,0.045-19.278,0.923-28.856c0.89-9.575,2.294-19.11,4.425-28.53
		c1.069-4.709,2.32-9.392,3.9-14.004c1.609-4.599,3.45-9.178,6.282-13.436c1.443-2.1,3.139-4.18,5.587-5.721
		c1.219-0.756,2.668-1.336,4.222-1.502c0.773-0.086,1.561-0.063,2.32,0.052c0.201,0.036,0.352,0.053,0.592,0.108
		c0.161,0.039,0.252,0.051,0.482,0.115c0.421,0.112,0.762,0.227,1.119,0.371c1.421,0.564,2.686,1.486,3.663,2.559
		c0.987,1.069,1.728,2.263,2.318,3.469c1.167,2.428,1.79,4.921,2.223,7.388c0.833,4.942,0.897,9.839,0.747,14.688
		c-0.162,4.85-0.631,9.655-1.239,14.432c-0.611,4.775-1.377,9.52-2.252,14.24c-0.438,2.359-0.905,4.714-1.4,7.062l-0.766,3.521
		c-0.277,1.176-0.5,2.32-0.871,3.582c-1.397,4.664-3,9.162-4.713,13.662c-1.724,4.486-3.58,8.929-5.673,13.281
		c-2.119,4.34-4.384,8.643-7.435,12.581c-0.772,0.978-1.603,1.929-2.542,2.813c-0.943,0.879-1.992,1.714-3.284,2.318
		c-1.263,0.604-2.92,0.914-4.445,0.452c-1.521-0.44-2.677-1.428-3.543-2.45c-1.73-2.09-2.674-4.441-3.467-6.777
		c-0.769-2.35-1.304-4.732-1.721-7.124c-0.821-4.785-1.167-9.606-1.243-14.419c-0.129-9.623,0.854-19.246,3.044-28.602
		c1.107-4.671,2.535-9.277,4.452-13.686c1.92-4.395,4.361-8.619,7.613-12.166l0.299,0.266c-3.088,3.61-5.314,7.864-7.084,12.247
		c-1.763,4.397-3.038,8.983-3.996,13.623c-1.886,9.292-2.57,18.815-2.271,28.265c0.175,4.724,0.618,9.439,1.509,14.045
		c0.451,2.297,1.015,4.568,1.778,6.739c0.767,2.149,1.731,4.278,3.102,5.843c0.68,0.774,1.468,1.351,2.263,1.555
		c0.788,0.216,1.635,0.068,2.505-0.357c1.75-0.878,3.321-2.605,4.685-4.398c2.739-3.663,4.927-7.867,6.925-12.12
		c1.988-4.271,3.76-8.664,5.401-13.104c1.626-4.436,3.168-8.953,4.452-13.447c0.294-1.03,0.519-2.231,0.774-3.381l0.712-3.481
		c0.459-2.326,0.892-4.657,1.295-6.993c0.805-4.671,1.5-9.359,2.042-14.057c0.539-4.694,0.923-9.401,1.066-14.09
		c0.123-4.678,0.015-9.377-0.769-13.849c-0.398-2.223-0.983-4.396-1.903-6.271c-0.918-1.873-2.204-3.354-3.803-3.959
		c-1.675-0.657-3.342-0.461-4.951,0.561c-1.611,1.012-3.048,2.682-4.272,4.512c-2.46,3.704-4.259,8.043-5.787,12.435
		c-1.518,4.413-2.739,8.962-3.787,13.556c-2.074,9.196-3.483,18.574-4.446,27.986c-0.931,9.415-1.399,18.895-1.109,28.314
		c0.077,2.355,0.206,4.698,0.409,7.041c0.191,2.247,0.583,4.463,1.393,6.348c0.811,1.895,2.061,3.271,3.752,3.754
		c1.701,0.518,3.842,0.212,5.9-0.467c4.167-1.408,8.138-3.992,11.887-6.738c3.753-2.787,7.335-5.864,10.813-9.061
		c6.944-6.416,13.461-13.34,19.724-20.479c6.241-7.156,12.265-14.535,17.967-22.118c5.628-7.608,10.665-15.694,15.462-23.91
		c4.78-8.229,9.296-16.622,13.655-25.097c4.373-8.468,8.528-17.052,12.546-25.697c4.017-8.645,7.94-17.343,11.663-26.112
		c3.687-8.783,7-17.726,9.832-26.81c1.403-4.545,2.644-9.139,3.675-13.772c1.016-4.633,1.846-9.314,2.178-14.02
		c0.313-4.681,0.243-9.47-1.109-13.843c-0.683-2.167-1.738-4.199-3.272-5.749c-1.514-1.558-3.53-2.567-5.686-3.112
		c-4.347-1.072-9.064-0.334-13.496,0.943c-4.462,1.312-8.768,3.24-12.926,5.431c-8.317,4.417-16.073,9.912-23.421,15.845
		c-3.671,2.975-7.229,6.093-10.623,9.363c-3.382,3.266-6.608,6.724-9.714,10.28c-6.183,7.126-11.733,14.781-16.147,23.061
		c-1.104,2.071-2.134,4.181-3.117,6.326c-1.006,2.162-1.897,4.26-2.75,6.496c-1.718,4.423-3.361,8.895-4.972,13.373
		c-3.217,8.962-6.288,17.98-9.213,27.044c-5.811,18.132-11.363,36.383-15.372,54.982c-1,4.647-1.868,9.322-2.61,14.011
		c-0.725,4.688-1.283,9.409-1.434,14.137c-0.083,4.683-0.057,9.578,1.994,13.763c1.022,2.053,2.663,3.823,4.805,4.707
		c2.121,0.89,4.591,0.986,6.845,0.434L79.204,224.21z"/>
</g>
<g opacity="0.5">
	<path fill="#0095FF" d="M112.37,135.352c-0.011-5.244-0.568-10.474-1.271-15.671c-0.724-5.198-1.619-10.374-2.689-15.514
		c-2.156-10.274-4.753-20.461-7.936-30.46c-3.175-9.996-6.796-19.863-11.244-29.327c-2.233-4.722-4.679-9.346-7.519-13.686
		c-0.713-1.078-1.443-2.172-2.219-3.118c-0.794-0.973-1.661-1.886-2.594-2.724c-1.864-1.677-3.983-3.065-6.261-4.05
		c-2.274-0.987-4.714-1.554-7.149-1.593c-2.435-0.044-4.854,0.457-7.065,1.453c-2.216,0.992-4.217,2.457-5.968,4.2
		c-0.875,0.873-1.694,1.812-2.45,2.807c-0.376,0.499-0.742,1.009-1.093,1.526l-1.066,1.617c-2.783,4.345-5.21,8.949-7.419,13.648
		c-2.221,4.697-4.211,9.51-5.984,14.4c-7.039,19.564-11.051,40.335-10.675,61.124c0.184,10.326,2.061,20.65,4.482,30.798
		c2.458,10.152,5.578,20.162,9.18,29.99c3.616,9.824,7.723,19.48,12.46,28.818c2.374,4.665,4.953,9.225,7.743,13.646
		c2.8,4.408,5.823,8.688,9.278,12.576c1.73,1.938,3.573,3.773,5.588,5.379c2.01,1.59,4.223,2.988,6.62,3.689
		c1.178,0.342,2.407,0.407,3.557,0.092c1.151-0.306,2.198-0.978,3.089-1.834c1.79-1.738,2.989-4.084,3.967-6.457
		c1.92-4.807,2.986-9.959,3.832-15.108c0.825-5.163,1.365-10.378,1.767-15.603c0.802-10.453,1.024-20.953,0.987-31.447
		c-0.027-10.496-0.3-20.992-0.645-31.491l-0.52-15.741c-0.237-5.207-0.733-10.409-1.402-15.588c-0.67-5.18-1.517-10.34-2.506-15.47
		c-0.979-5.132-2.104-10.237-3.402-15.289c-1.309-5.041-2.751-10.074-4.605-14.856c-0.468-1.188-0.967-2.361-1.523-3.45
		c-0.278-0.541-0.574-1.066-0.879-1.505c-0.15-0.218-0.308-0.416-0.434-0.542L77.7,59.873c-1.838-1.938-3.566-3.804-5.467-5.466
		c-1.886-1.658-3.909-3.114-6.073-4.109c-2.158-1-4.46-1.483-6.713-1.237c-2.255,0.226-4.44,1.164-6.416,2.522
		c-1.951,1.336-3.824,3.192-5.679,4.968c-7.358,7.277-13.996,15.384-20.009,23.857c-5.961,8.499-11.38,17.463-15.16,26.997
		c-0.928,2.383-1.747,4.8-2.37,7.244c-0.613,2.407-1.061,5.01-1.513,7.55c-0.875,5.111-1.499,10.257-1.813,15.417
		c-0.636,10.315,0.017,20.698,2.191,30.765c2.149,10.067,5.867,19.788,10.979,28.737c0.634,1.121,1.299,2.226,1.972,3.323
		l2.077,3.341l4.2,6.641c2.832,4.4,5.681,8.783,8.678,13.054c2.991,4.271,6.105,8.448,9.427,12.434
		c3.325,3.976,6.857,7.775,10.752,11.1c3.887,3.301,8.186,6.176,12.908,7.65c2.354,0.725,4.808,1.049,7.229,0.838
		c2.421-0.2,4.792-0.941,6.986-2.09c1.1-0.576,2.149-1.239,3.167-1.997c0.958-0.724,1.907-1.574,2.766-2.479
		c1.736-1.818,3.236-3.899,4.566-6.093c2.655-4.401,4.663-9.229,6.346-14.155c3.335-9.886,5.447-20.195,7.095-30.547
		C111.034,177.393,112.182,156.35,112.37,135.352z M112.771,135.352c-0.017,10.514-0.347,21.024-0.949,31.522
		c-0.579,10.5-1.528,20.981-2.894,31.422c-1.414,10.429-3.289,20.839-6.443,30.96c-1.602,5.046-3.517,10.035-6.175,14.713
		c-1.335,2.331-2.864,4.583-4.708,6.616c-0.925,1.022-1.91,1.962-3.027,2.851c-1.069,0.838-2.226,1.615-3.438,2.289
		c-2.424,1.351-5.142,2.287-7.957,2.592c-2.813,0.318-5.674,0.009-8.357-0.743c-5.4-1.521-10.05-4.605-14.199-8.011
		c-4.155-3.439-7.86-7.315-11.336-11.344c-3.47-4.037-6.705-8.246-9.807-12.535c-3.095-4.293-6.08-8.654-8.949-13.082l-4.262-6.66
		l-2.103-3.342c-0.706-1.138-1.401-2.281-2.067-3.442c-5.363-9.272-9.298-19.394-11.591-29.87
		c-2.304-10.48-2.935-21.277-2.279-31.93c0.329-5.33,0.976-10.631,1.878-15.877c0.467-2.631,0.922-5.211,1.621-7.894
		c0.693-2.644,1.582-5.207,2.576-7.713c4.045-10,9.661-19.113,15.804-27.763c6.204-8.618,12.982-16.799,20.619-24.257
		c0.963-0.931,1.931-1.835,2.948-2.742c0.961-0.869,2.102-1.818,3.271-2.6c2.35-1.596,5.14-2.812,8.135-3.094
		c2.991-0.311,6.009,0.378,8.596,1.604c2.61,1.222,4.861,2.923,6.899,4.747c2.038,1.823,3.86,3.843,5.616,5.734l0.668,0.699
		c0.331,0.346,0.571,0.674,0.792,0.998c0.435,0.646,0.773,1.275,1.089,1.905c0.624,1.258,1.138,2.513,1.619,3.774
		c1.887,5.042,3.282,10.151,4.557,15.291c2.511,10.282,4.358,20.699,5.54,31.206c0.587,5.253,1,10.53,1.151,15.826l0.25,15.775
		c0.379,21.021,0.466,42.092-1.129,63.104c-0.433,5.25-1.004,10.494-1.866,15.705c-0.886,5.198-1.984,10.405-3.993,15.364
		c-1.026,2.457-2.292,4.893-4.268,6.857c-0.989,0.967-2.21,1.778-3.604,2.161c-1.39,0.394-2.882,0.313-4.223-0.065
		c-2.669-0.766-4.989-2.231-7.101-3.871c-2.109-1.654-4.014-3.527-5.796-5.495c-3.559-3.946-6.649-8.259-9.513-12.694
		c-2.863-4.441-5.461-9.038-7.937-13.693c-4.946-9.319-9.259-18.961-13.085-28.791c-3.815-9.834-7.14-19.867-9.811-30.098
		c-1.332-5.115-2.493-10.283-3.401-15.514c-0.893-5.225-1.572-10.537-1.696-15.881c-0.313-10.628,0.52-21.278,2.378-31.73
		c1.847-10.456,4.625-20.74,8.323-30.688c3.7-9.942,8.17-19.63,14.047-28.574c2.854-4.49,6.813-8.882,12.09-11.064
		c2.607-1.102,5.471-1.621,8.289-1.5c2.821,0.113,5.58,0.834,8.095,1.998c2.52,1.163,4.814,2.751,6.812,4.635
		c1,0.943,1.922,1.962,2.765,3.045c0.862,1.11,1.562,2.226,2.272,3.354c2.81,4.526,5.174,9.275,7.326,14.1
		c4.274,9.666,7.682,19.658,10.638,29.758c2.915,10.115,5.471,20.329,7.472,30.657c0.998,5.164,1.915,10.344,2.608,15.56
		C112.239,124.831,112.779,130.079,112.771,135.352z"/>
</g>
<g opacity="0.5">
	<path fill="#0095FF" d="M112.32,135.35c-0.014-5.238-0.573-10.467-1.278-15.663c-0.727-5.196-1.62-10.372-2.699-15.508
		c-2.175-10.268-4.778-20.451-7.994-30.436c-3.202-9.983-6.85-19.835-11.319-29.273c-2.244-4.709-4.699-9.318-7.543-13.634
		c-0.714-1.072-1.448-2.163-2.212-3.089c-0.789-0.958-1.648-1.858-2.573-2.683c-1.847-1.65-3.945-3.014-6.191-3.977
		c-4.482-1.963-9.622-2.105-13.943-0.096c-2.167,0.979-4.124,2.424-5.844,4.143c-0.86,0.86-1.665,1.788-2.41,2.771
		c-0.37,0.493-0.731,0.999-1.076,1.51l-1.059,1.612c-2.761,4.33-5.172,8.926-7.366,13.616c-2.211,4.685-4.192,9.488-5.957,14.368
		c-7.002,19.523-11.018,40.234-10.672,60.962c0.167,10.276,2.009,20.585,4.405,30.722c2.432,10.144,5.525,20.15,9.102,29.979
		c3.59,9.824,7.671,19.481,12.382,28.822c2.36,4.667,4.919,9.232,7.691,13.656c2.787,4.408,5.776,8.709,9.235,12.58
		c1.729,1.934,3.57,3.764,5.579,5.358c2.003,1.58,4.209,2.968,6.578,3.657c1.16,0.334,2.361,0.396,3.481,0.087
		c1.123-0.301,2.147-0.958,3.024-1.804c1.762-1.715,2.956-4.045,3.927-6.408c1.909-4.787,2.971-9.936,3.812-15.077
		c0.82-5.157,1.356-10.368,1.754-15.59c0.395-5.224,0.642-10.46,0.802-15.701c0.135-5.241,0.167-10.487,0.146-15.733
		c-0.047-10.492-0.339-20.984-0.703-31.482l-0.553-15.737c-0.248-5.195-0.755-10.388-1.434-15.559
		c-0.68-5.171-1.538-10.322-2.535-15.443c-0.985-5.123-2.115-10.22-3.418-15.26c-1.313-5.029-2.762-10.052-4.611-14.802
		c-0.466-1.179-0.964-2.341-1.512-3.41c-0.273-0.529-0.564-1.042-0.853-1.456c-0.142-0.205-0.288-0.386-0.389-0.484l-0.706-0.72
		c-1.849-1.944-3.564-3.791-5.448-5.433c-1.867-1.637-3.862-3.062-5.97-4.029c-2.104-0.971-4.317-1.43-6.478-1.191
		c-2.163,0.219-4.272,1.122-6.201,2.451c-0.486,0.325-0.954,0.691-1.418,1.064c-0.455,0.374-0.91,0.775-1.407,1.225
		c-0.929,0.84-1.873,1.735-2.787,2.632c-7.324,7.254-13.944,15.353-19.934,23.808c-5.938,8.48-11.333,17.425-15.079,26.901
		c-0.92,2.368-1.729,4.767-2.345,7.186c-0.602,2.372-1.049,4.979-1.5,7.507c-0.872,5.094-1.492,10.221-1.805,15.359
		c-0.634,10.274,0.022,20.605,2.18,30.619c2.131,10.018,5.822,19.688,10.902,28.597c0.631,1.116,1.291,2.216,1.96,3.31l2.074,3.34
		l4.192,6.639c2.825,4.398,5.675,8.771,8.666,13.033c2.986,4.264,6.093,8.43,9.403,12.397c3.296,3.974,6.795,7.771,10.649,11.09
		c3.845,3.295,8.092,6.158,12.731,7.623c2.313,0.722,4.715,1.047,7.087,0.851c2.373-0.188,4.7-0.904,6.865-2.026
		c1.085-0.563,2.122-1.213,3.134-1.961c0.938-0.703,1.882-1.543,2.733-2.435c1.723-1.791,3.219-3.853,4.548-6.026
		c2.655-4.367,4.674-9.177,6.368-14.087c3.358-9.854,5.5-20.153,7.176-30.493C110.957,177.389,112.122,156.346,112.32,135.35z
		 M112.82,135.352c-0.009,10.515-0.335,21.027-0.925,31.527c-0.558,10.503-1.5,20.987-2.83,31.438
		c-1.385,10.438-3.23,20.86-6.361,31.013c-1.592,5.062-3.496,10.069-6.154,14.782c-1.336,2.349-2.869,4.621-4.725,6.682
		c-0.933,1.037-1.922,1.986-3.06,2.896c-1.075,0.849-2.246,1.64-3.471,2.324c-2.453,1.377-5.213,2.338-8.078,2.655
		c-2.863,0.332-5.774,0.022-8.499-0.731c-5.482-1.531-10.184-4.627-14.375-8.037c-8.373-6.938-15.04-15.359-21.269-23.924
		c-3.101-4.304-6.085-8.675-8.96-13.104l-4.27-6.661l-2.106-3.343c-0.709-1.143-1.41-2.291-2.079-3.458
		c-5.394-9.313-9.356-19.483-11.667-30.013c-2.319-10.532-2.948-21.381-2.29-32.075c0.331-5.351,0.98-10.671,1.887-15.934
		c0.469-2.643,0.924-5.219,1.634-7.937c0.703-2.669,1.6-5.25,2.603-7.771c4.079-10.059,9.719-19.19,15.885-27.858
		c6.228-8.636,13.023-16.826,20.694-24.307c0.969-0.935,1.939-1.84,2.966-2.755c0.48-0.428,1.013-0.893,1.577-1.348
		c0.562-0.446,1.135-0.884,1.744-1.286c2.397-1.626,5.263-2.877,8.35-3.166c3.083-0.319,6.191,0.396,8.832,1.65
		c2.666,1.251,4.946,2.983,7.002,4.827c2.055,1.843,3.89,3.882,5.635,5.768l0.664,0.696c0.356,0.374,0.607,0.718,0.837,1.055
		c0.452,0.672,0.794,1.314,1.116,1.956c0.632,1.279,1.148,2.544,1.631,3.814c1.891,5.075,3.279,10.192,4.551,15.345
		c2.503,10.304,4.335,20.736,5.494,31.262c0.577,5.262,0.98,10.549,1.119,15.855l0.217,15.78c0.348,21.024,0.371,42.1-1.228,63.125
		c-0.437,5.254-1.012,10.502-1.878,15.719c-0.891,5.205-1.993,10.42-4.014,15.396c-1.033,2.466-2.304,4.917-4.307,6.906
		c-1.003,0.978-2.247,1.804-3.67,2.192c-1.419,0.399-2.939,0.314-4.298-0.07c-2.697-0.777-5.025-2.256-7.144-3.902
		c-2.115-1.665-4.021-3.545-5.805-5.52c-3.555-3.961-6.68-8.254-9.556-12.689c-2.879-4.438-5.499-9.027-7.988-13.684
		c-4.972-9.315-9.311-18.955-13.163-28.785c-3.841-9.835-7.192-19.871-9.89-30.111c-1.345-5.121-2.52-10.296-3.441-15.536
		c-0.905-5.233-1.604-10.567-1.732-15.933c-0.325-10.658,0.49-21.339,2.356-31.818c1.849-10.483,4.63-20.794,8.349-30.762
		c3.715-9.965,8.206-19.669,14.127-28.64c2.876-4.507,6.902-8.974,12.279-11.178c2.657-1.115,5.576-1.636,8.442-1.506
		c2.869,0.122,5.667,0.863,8.213,2.048c2.551,1.186,4.866,2.798,6.88,4.708c1.008,0.956,1.938,1.989,2.786,3.085
		c0.873,1.131,1.569,2.249,2.279,3.384c2.806,4.55,5.16,9.314,7.301,14.152c4.252,9.691,7.633,19.698,10.562,29.812
		c2.881,10.128,5.433,20.346,7.414,30.681c0.989,5.166,1.909,10.348,2.598,15.565C112.293,124.825,112.831,130.075,112.82,135.352z"
		/>
</g>
<g>
	<path d="M122.359,170.861l5.815-0.766v4.523c1.468-2.645,4.464-4.523,8.751-4.523c7.343,0,12.042,5.873,12.042,14.449
		c0,9.516-5.228,15.857-13.51,15.857c-3.29,0-5.932-0.938-7.283-2.465v14.859h-5.815V170.861z M128.175,178.672v14.92
		c1.586,1.645,3.583,2.407,6.227,2.407c5.521,0,8.517-4.229,8.517-11.101c0-6.168-2.526-10.045-7.812-10.045
		C131.699,174.854,129.291,176.561,128.175,178.672z"/>
	<path d="M154.02,185.368c0-8.692,4.934-15.271,13.803-15.271c7.871,0,11.983,4.463,11.983,10.514c0,2.762-0.412,4.287-0.647,5.346
		H160.07c0.117,6.695,3.759,9.456,8.928,9.456c4.405,0,7.635-1.763,9.457-4.286l0.704,4.169c-1.174,2.291-4.757,5.108-10.984,5.108
		C159.423,200.404,154.02,195.001,154.02,185.368z M160.304,182.373h13.686v-0.998c0-3.525-1.351-6.579-6.226-6.579
		C163.652,174.796,161.068,177.498,160.304,182.373z"/>
	<path d="M184.74,185.251c0-9.751,5.992-15.213,14.332-15.213c8.341,0,14.273,5.462,14.273,15.213
		c0,9.69-5.815,15.213-14.273,15.213C190.614,200.464,184.74,194.941,184.74,185.251z M207.354,185.251
		c0-6.755-3.23-10.22-8.282-10.22c-5.169,0-8.281,3.465-8.281,10.22s3.112,10.161,8.281,10.161
		C204.124,195.412,207.354,192.006,207.354,185.251z"/>
	<path d="M220.923,170.861l5.816-0.766v4.523c1.468-2.645,4.462-4.523,8.752-4.523c7.343,0,12.04,5.873,12.04,14.449
		c0,9.516-5.229,15.857-13.51,15.857c-3.289,0-5.934-0.938-7.283-2.465v14.859h-5.816V170.861L220.923,170.861z M226.739,178.672
		v14.92c1.585,1.645,3.583,2.407,6.226,2.407c5.521,0,8.518-4.229,8.518-11.101c0-6.168-2.525-10.045-7.812-10.045
		C230.263,174.854,227.854,176.561,226.739,178.672z"/>
	<path d="M255.109,156.177l5.813-0.764v44.522h-5.813V156.177z"/>
	<path d="M268.501,185.368c0-8.692,4.935-15.271,13.804-15.271c7.871,0,11.983,4.463,11.983,10.514c0,2.762-0.411,4.287-0.646,5.346
		h-19.092c0.119,6.695,3.76,9.456,8.93,9.456c4.404,0,7.637-1.763,9.457-4.286l0.705,4.169c-1.176,2.291-4.76,5.108-10.984,5.108
		C273.904,200.404,268.501,195.001,268.501,185.368z M274.786,182.373h13.687v-0.998c0-3.525-1.351-6.579-6.228-6.579
		C278.135,174.796,275.55,177.498,274.786,182.373z"/>
	<path d="M119.834,238.117c0-9.751,5.991-15.213,14.332-15.213c8.34,0,14.273,5.462,14.273,15.213
		c0,9.691-5.815,15.212-14.273,15.212S119.834,247.809,119.834,238.117z M142.448,238.117c0-6.756-3.231-10.221-8.282-10.221
		c-5.169,0-8.282,3.465-8.282,10.221c0,6.755,3.113,10.16,8.282,10.16C139.217,248.277,142.448,244.872,142.448,238.117z"/>
	<path d="M153.081,223.902h3.935v-3.348c0-8.226,3.818-12.277,10.631-12.277c5.697,0,8.928,2.645,8.928,7.578
		c0,1.232-0.294,2.701-0.587,3.465l-4.699,0.588c0-0.117,0.234-1.469,0.234-2.409c0-3.522-1.41-4.815-3.935-4.815
		c-3.642,0-4.817,2.819-4.817,7.344v3.877h8.282v4.697h-8.282v24.2h-5.756v-24.2h-4.817L153.081,223.902z"/>
	<path d="M186.443,223.902h3.407v-0.295c0-2.643,0.352-5.461,0.999-7.224l4.934-0.707v8.226h8.987v4.699h-8.987v15.153
		c0,3.406,1.586,4.522,4.053,4.522c2.525,0,4.522-1.116,5.698-2.644l0.763,3.642c-1.116,2.113-3.759,3.994-7.929,3.994
		c-5.169,0-8.517-2.584-8.517-9.164V228.6h-4.522L186.443,223.902z"/>
	<path d="M209.881,238.117c0-9.751,5.991-15.213,14.332-15.213c8.34,0,14.271,5.462,14.271,15.213
		c0,9.691-5.813,15.212-14.271,15.212C215.754,253.329,209.881,247.809,209.881,238.117z M232.495,238.117
		c0-6.756-3.232-10.221-8.283-10.221c-5.169,0-8.282,3.465-8.282,10.221c0,6.755,3.113,10.16,8.282,10.16
		C229.263,248.277,232.495,244.872,232.495,238.117z"/>
	<path d="M246.062,223.727l5.816-0.765v4.642c1.409-2.703,4.287-4.642,8.518-4.642c4.756,0,7.693,1.998,9.162,5.697
		c1.232-3.229,4.465-5.697,9.397-5.697c7.343,0,10.396,4.7,10.396,12.746v17.094h-5.754v-17.094c0-5.697-2.115-7.871-6.402-7.871
		c-3.406,0-5.641,1.881-6.756,4.054c0.177,1.176,0.295,2.469,0.295,3.817v17.094h-5.816v-17.094c0-5.697-1.996-7.871-6.342-7.871
		c-3.408,0-5.641,1.82-6.696,3.937v21.028h-5.815v-29.075H246.062z"/>
	<path d="M296.227,238.117c0-9.751,5.991-15.213,14.334-15.213c8.34,0,14.271,5.462,14.271,15.213
		c0,9.691-5.814,15.212-14.271,15.212C302.102,253.329,296.227,247.809,296.227,238.117z M318.842,238.117
		c0-6.756-3.232-10.221-8.281-10.221c-5.17,0-8.283,3.465-8.283,10.221c0,6.755,3.113,10.16,8.283,10.16
		C315.609,248.277,318.842,244.872,318.842,238.117z"/>
	<path d="M332.411,223.727l5.815-0.765v4.759c0.998-2.645,3.463-4.759,6.931-4.759c4.758,0,6.284,3.172,6.284,6.521
		c0,1.176-0.295,2.645-0.588,3.408l-4.875,0.762c0.059-0.176,0.293-1.645,0.293-2.525c0-2.643-0.881-3.581-2.996-3.581
		c-2.523,0-4.463,2.583-5.049,4.698v20.559h-5.815V223.727z"/>
	<path d="M356.846,223.727l5.815-0.765v4.759c0.997-2.645,3.465-4.759,6.93-4.759c4.759,0,6.286,3.172,6.286,6.521
		c0,1.176-0.294,2.645-0.588,3.408l-4.875,0.762c0.059-0.176,0.293-1.645,0.293-2.525c0-2.643-0.88-3.581-2.995-3.581
		c-2.524,0-4.464,2.583-5.051,4.698v20.559h-5.815V223.727z"/>
	<path d="M378.755,238.117c0-9.751,5.991-15.213,14.331-15.213c8.341,0,14.273,5.462,14.273,15.213
		c0,9.691-5.815,15.212-14.273,15.212S378.755,247.809,378.755,238.117z M401.368,238.117c0-6.756-3.229-10.221-8.282-10.221
		c-5.168,0-8.281,3.465-8.281,10.221c0,6.755,3.113,10.16,8.281,10.16C398.139,248.277,401.368,244.872,401.368,238.117z"/>
	<path d="M410.182,223.902h6.226l6.872,21.263l7.343-21.263h3.229l6.579,21.263l7.87-21.263h5.758l-11.337,29.252h-5.58
		l-5.639-17.622l-6.169,17.622h-5.228L410.182,223.902z"/>
</g>
</svg>
