<?xml version="1.0" encoding="utf-8"?>
<!-- Generator: Adobe Illustrator 18.0.0, SVG Export Plug-In . SVG Version: 6.00 Build 0)  -->
<!DOCTYPE svg PUBLIC "-//W3C//DTD SVG 1.1//EN" "http://www.w3.org/Graphics/SVG/1.1/DTD/svg11.dtd">
<svg version="1.1" id="Layer_1" xmlns="http://www.w3.org/2000/svg" xmlns:xlink="http://www.w3.org/1999/xlink" x="0px" y="0px"
	 viewBox="0 0 460 260" enable-background="new 0 0 460 260" xml:space="preserve">
<g opacity="0.6">
	<path fill="#0095FF" d="M79.2,224.2c-2.3,0.7-4.9,0.7-7.2-0.2c-2.3-0.9-4.2-2.7-5.4-4.9c-1.2-2.2-1.8-4.6-2.1-7
		c-0.3-2.4-0.4-4.8-0.4-7.2c0.1-9.6,1.5-19.2,3.3-28.5c1.8-9.4,4.1-18.7,6.5-27.9c2.5-9.2,5.1-18.4,8-27.5c2.9-9.1,5.9-18.2,9-27.2
		c1.6-4.5,3.2-9,4.9-13.5c0.4-1.1,0.9-2.2,1.3-3.4c0.5-1.2,1-2.2,1.5-3.3c1-2.2,2-4.4,3.2-6.5c4.5-8.6,10.2-16.5,16.6-23.8
		c3.2-3.6,6.5-7.2,10-10.5c3.5-3.3,7.2-6.5,10.9-9.4c7.6-6,15.6-11.4,24.2-15.7c4.3-2.2,8.8-4.1,13.5-5.4c2.4-0.6,4.8-1.1,7.3-1.3
		c2.5-0.2,5-0.1,7.5,0.6c2.4,0.7,4.8,1.9,6.6,3.8c1.8,1.9,2.9,4.3,3.6,6.6c1.4,4.8,1.3,9.8,0.9,14.5c-0.9,9.6-3.4,18.9-6.3,28
		c-5.8,18.3-13.6,35.7-21.5,53.1c-8,17.3-16.2,34.6-25.6,51.3c-4.7,8.3-9.6,16.6-15.2,24.4c-5.6,7.8-11.5,15.3-17.8,22.6
		c-6.2,7.3-12.7,14.4-19.7,21c-3.5,3.3-7.1,6.5-11,9.4c-3.9,2.9-8,5.7-12.9,7.4c-1.2,0.4-2.5,0.7-3.9,0.9c-1.4,0.1-2.8,0.1-4.3-0.3
		c-1.4-0.4-2.8-1.2-3.9-2.3c-1-1.1-1.8-2.3-2.3-3.5c-1.1-2.5-1.5-5.1-1.8-7.6c-0.2-2.4-0.4-4.8-0.5-7.2c-0.4-9.7,0-19.3,0.9-28.9
		c0.9-9.6,2.3-19.1,4.4-28.5c1.1-4.7,2.3-9.4,3.9-14c1.6-4.6,3.4-9.2,6.3-13.4c1.4-2.1,3.1-4.2,5.6-5.7c1.2-0.8,2.7-1.3,4.2-1.5
		c0.8-0.1,1.6-0.1,2.3,0.1c0.2,0,0.4,0.1,0.6,0.1c0.2,0,0.3,0.1,0.5,0.1c0.4,0.1,0.8,0.2,1.1,0.4c1.4,0.6,2.7,1.5,3.7,2.6
		c1,1.1,1.7,2.3,2.3,3.5c1.2,2.4,1.8,4.9,2.2,7.4c0.8,4.9,0.9,9.8,0.7,14.7c-0.2,4.9-0.6,9.7-1.2,14.4c-0.6,4.8-1.4,9.5-2.3,14.2
		c-0.4,2.4-0.9,4.7-1.4,7.1l-0.8,3.5c-0.3,1.2-0.5,2.3-0.9,3.6c-1.4,4.7-3,9.2-4.7,13.7c-1.7,4.5-3.6,8.9-5.7,13.3
		c-2.1,4.3-4.4,8.6-7.4,12.6c-0.8,1-1.6,1.9-2.5,2.8c-0.9,0.9-2,1.7-3.3,2.3c-1.3,0.6-2.9,0.9-4.4,0.5c-1.5-0.4-2.7-1.4-3.5-2.4
		c-1.7-2.1-2.7-4.4-3.5-6.8c-0.8-2.4-1.3-4.7-1.7-7.1c-0.8-4.8-1.2-9.6-1.2-14.4c-0.1-9.6,0.9-19.2,3-28.6c1.1-4.7,2.5-9.3,4.5-13.7
		c1.9-4.4,4.4-8.6,7.6-12.2l0.3,0.3c-3.1,3.6-5.3,7.9-7.1,12.2c-1.8,4.4-3,9-4,13.6c-1.9,9.3-2.6,18.8-2.3,28.3
		c0.2,4.7,0.6,9.4,1.5,14c0.5,2.3,1,4.6,1.8,6.7c0.8,2.1,1.7,4.3,3.1,5.8c0.7,0.8,1.5,1.4,2.3,1.6c0.8,0.2,1.6,0.1,2.5-0.4
		c1.8-0.9,3.3-2.6,4.7-4.4c2.7-3.7,4.9-7.9,6.9-12.1c2-4.3,3.8-8.7,5.4-13.1c1.6-4.4,3.2-9,4.5-13.4c0.3-1,0.5-2.2,0.8-3.4l0.7-3.5
		c0.5-2.3,0.9-4.7,1.3-7c0.8-4.7,1.5-9.4,2-14.1c0.5-4.7,0.9-9.4,1.1-14.1c0.1-4.7,0-9.4-0.8-13.8c-0.4-2.2-1-4.4-1.9-6.3
		c-0.9-1.9-2.2-3.4-3.8-4c-1.7-0.7-3.3-0.5-5,0.6c-1.6,1-3,2.7-4.3,4.5c-2.5,3.7-4.3,8-5.8,12.4c-1.5,4.4-2.7,9-3.8,13.6
		c-2.1,9.2-3.5,18.6-4.4,28c-0.9,9.4-1.4,18.9-1.1,28.3c0.1,2.4,0.2,4.7,0.4,7c0.2,2.2,0.6,4.5,1.4,6.3c0.8,1.9,2.1,3.3,3.8,3.8
		c1.7,0.5,3.8,0.2,5.9-0.5c4.2-1.4,8.1-4,11.9-6.7c3.8-2.8,7.3-5.9,10.8-9.1c6.9-6.4,13.5-13.3,19.7-20.5c6.2-7.2,12.3-14.5,18-22.1
		c5.6-7.6,10.7-15.7,15.5-23.9c4.8-8.2,9.3-16.6,13.7-25.1c4.4-8.5,8.5-17.1,12.5-25.7c4-8.6,7.9-17.3,11.7-26.1
		c3.7-8.8,7-17.7,9.8-26.8c1.4-4.5,2.6-9.1,3.7-13.8c1-4.6,1.8-9.3,2.2-14c0.3-4.7,0.2-9.5-1.1-13.8c-0.7-2.2-1.7-4.2-3.3-5.7
		c-1.5-1.6-3.5-2.6-5.7-3.1c-4.3-1.1-9.1-0.3-13.5,0.9c-4.5,1.3-8.8,3.2-12.9,5.4c-8.3,4.4-16.1,9.9-23.4,15.8
		c-3.7,3-7.2,6.1-10.6,9.4c-3.4,3.3-6.6,6.7-9.7,10.3c-6.2,7.1-11.7,14.8-16.1,23.1c-1.1,2.1-2.1,4.2-3.1,6.3
		c-1,2.2-1.9,4.3-2.8,6.5c-1.7,4.4-3.4,8.9-5,13.4c-3.2,9-6.3,18-9.2,27c-5.8,18.1-11.4,36.4-15.4,55c-1,4.6-1.9,9.3-2.6,14
		c-0.7,4.7-1.3,9.4-1.4,14.1c-0.1,4.7-0.1,9.6,2,13.8c1,2.1,2.7,3.8,4.8,4.7c2.1,0.9,4.6,1,6.8,0.4L79.2,224.2z"/>
</g>
<g opacity="0.5">
	<path fill="#0095FF" d="M112.4,135.4c0-5.2-0.6-10.5-1.3-15.7c-0.7-5.2-1.6-10.4-2.7-15.5c-2.2-10.3-4.8-20.5-7.9-30.5
		c-3.2-10-6.8-19.9-11.2-29.3c-2.2-4.7-4.7-9.3-7.5-13.7c-0.7-1.1-1.4-2.2-2.2-3.1c-0.8-1-1.7-1.9-2.6-2.7c-1.9-1.7-4-3.1-6.3-4
		c-2.3-1-4.7-1.6-7.1-1.6c-2.4,0-4.9,0.5-7.1,1.5c-2.2,1-4.2,2.5-6,4.2c-0.9,0.9-1.7,1.8-2.5,2.8c-0.4,0.5-0.7,1-1.1,1.5l-1.1,1.6
		c-2.8,4.3-5.2,8.9-7.4,13.6c-2.2,4.7-4.2,9.5-6,14.4c-7,19.6-11.1,40.3-10.7,61.1c0.2,10.3,2.1,20.6,4.5,30.8
		c2.5,10.2,5.6,20.2,9.2,30c3.6,9.8,7.7,19.5,12.5,28.8c2.4,4.7,5,9.2,7.7,13.6c2.8,4.4,5.8,8.7,9.3,12.6c1.7,1.9,3.6,3.8,5.6,5.4
		c2,1.6,4.2,3,6.6,3.7c1.2,0.3,2.4,0.4,3.6,0.1c1.2-0.3,2.2-1,3.1-1.8c1.8-1.7,3-4.1,4-6.5c1.9-4.8,3-10,3.8-15.1
		c0.8-5.2,1.4-10.4,1.8-15.6c0.8-10.5,1-21,1-31.4c0-10.5-0.3-21-0.6-31.5l-0.5-15.7c-0.2-5.2-0.7-10.4-1.4-15.6
		c-0.7-5.2-1.5-10.3-2.5-15.5c-1-5.1-2.1-10.2-3.4-15.3c-1.3-5-2.8-10.1-4.6-14.9c-0.5-1.2-1-2.4-1.5-3.5c-0.3-0.5-0.6-1.1-0.9-1.5
		c-0.2-0.2-0.3-0.4-0.4-0.5l-0.7-0.7c-1.8-1.9-3.6-3.8-5.5-5.5c-1.9-1.7-3.9-3.1-6.1-4.1c-2.2-1-4.5-1.5-6.7-1.2
		c-2.3,0.2-4.4,1.2-6.4,2.5c-2,1.3-3.8,3.2-5.7,5c-7.4,7.3-14,15.4-20,23.9c-6,8.5-11.4,17.5-15.2,27c-0.9,2.4-1.7,4.8-2.4,7.2
		c-0.6,2.4-1.1,5-1.5,7.6c-0.9,5.1-1.5,10.3-1.8,15.4c-0.6,10.3,0,20.7,2.2,30.8c2.1,10.1,5.9,19.8,11,28.7c0.6,1.1,1.3,2.2,2,3.3
		l2.1,3.3l4.2,6.6c2.8,4.4,5.7,8.8,8.7,13.1c3,4.3,6.1,8.4,9.4,12.4c3.3,4,6.9,7.8,10.8,11.1c3.9,3.3,8.2,6.2,12.9,7.6
		c2.4,0.7,4.8,1,7.2,0.8c2.4-0.2,4.8-0.9,7-2.1c1.1-0.6,2.1-1.2,3.2-2c1-0.7,1.9-1.6,2.8-2.5c1.7-1.8,3.2-3.9,4.6-6.1
		c2.7-4.4,4.7-9.2,6.3-14.2c3.3-9.9,5.4-20.2,7.1-30.5C111,177.4,112.2,156.4,112.4,135.4z M112.8,135.4c0,10.5-0.3,21-0.9,31.5
		c-0.6,10.5-1.5,21-2.9,31.4c-1.4,10.4-3.3,20.8-6.4,31c-1.6,5-3.5,10-6.2,14.7c-1.3,2.3-2.9,4.6-4.7,6.6c-0.9,1-1.9,2-3,2.9
		c-1.1,0.8-2.2,1.6-3.4,2.3c-2.4,1.4-5.1,2.3-8,2.6c-2.8,0.3-5.7,0-8.4-0.7c-5.4-1.5-10-4.6-14.2-8c-4.2-3.4-7.9-7.3-11.3-11.3
		c-3.5-4-6.7-8.2-9.8-12.5c-3.1-4.3-6.1-8.7-8.9-13.1l-4.3-6.7l-2.1-3.3c-0.7-1.1-1.4-2.3-2.1-3.4c-5.4-9.3-9.3-19.4-11.6-29.9
		c-2.3-10.5-2.9-21.3-2.3-31.9c0.3-5.3,1-10.6,1.9-15.9c0.5-2.6,0.9-5.2,1.6-7.9c0.7-2.6,1.6-5.2,2.6-7.7c4-10,9.7-19.1,15.8-27.8
		c6.2-8.6,13-16.8,20.6-24.3c1-0.9,1.9-1.8,2.9-2.7c1-0.9,2.1-1.8,3.3-2.6c2.3-1.6,5.1-2.8,8.1-3.1c3-0.3,6,0.4,8.6,1.6
		c2.6,1.2,4.9,2.9,6.9,4.7c2,1.8,3.9,3.8,5.6,5.7l0.7,0.7c0.3,0.3,0.6,0.7,0.8,1c0.4,0.6,0.8,1.3,1.1,1.9c0.6,1.3,1.1,2.5,1.6,3.8
		c1.9,5,3.3,10.2,4.6,15.3c2.5,10.3,4.4,20.7,5.5,31.2c0.6,5.3,1,10.5,1.2,15.8l0.2,15.8c0.4,21,0.5,42.1-1.1,63.1
		c-0.4,5.2-1,10.5-1.9,15.7c-0.9,5.2-2,10.4-4,15.4c-1,2.5-2.3,4.9-4.3,6.9c-1,1-2.2,1.8-3.6,2.2c-1.4,0.4-2.9,0.3-4.2-0.1
		c-2.7-0.8-5-2.2-7.1-3.9c-2.1-1.7-4-3.5-5.8-5.5c-3.6-3.9-6.6-8.3-9.5-12.7c-2.9-4.4-5.5-9-7.9-13.7c-4.9-9.3-9.3-19-13.1-28.8
		c-3.8-9.8-7.1-19.9-9.8-30.1c-1.3-5.1-2.5-10.3-3.4-15.5c-0.9-5.2-1.6-10.5-1.7-15.9c-0.3-10.6,0.5-21.3,2.4-31.7
		c1.8-10.5,4.6-20.7,8.3-30.7c3.7-9.9,8.2-19.6,14-28.6C46,24.6,50,20.2,55.3,18c2.6-1.1,5.5-1.6,8.3-1.5c2.8,0.1,5.6,0.8,8.1,2
		c2.5,1.2,4.8,2.8,6.8,4.6c1,0.9,1.9,2,2.8,3c0.9,1.1,1.6,2.2,2.3,3.4c2.8,4.5,5.2,9.3,7.3,14.1c4.3,9.7,7.7,19.7,10.6,29.8
		c2.9,10.1,5.5,20.3,7.5,30.7c1,5.2,1.9,10.3,2.6,15.6C112.2,124.8,112.8,130.1,112.8,135.4z"/>
</g>
<g opacity="0.5">
	<path fill="#0095FF" d="M112.3,135.4c0-5.2-0.6-10.5-1.3-15.7c-0.7-5.2-1.6-10.4-2.7-15.5c-2.2-10.3-4.8-20.5-8-30.4
		c-3.2-10-6.8-19.8-11.3-29.3c-2.2-4.7-4.7-9.3-7.5-13.6c-0.7-1.1-1.4-2.2-2.2-3.1c-0.8-1-1.6-1.9-2.6-2.7c-1.8-1.6-3.9-3-6.2-4
		c-4.5-2-9.6-2.1-13.9-0.1c-2.2,1-4.1,2.4-5.8,4.1c-0.9,0.9-1.7,1.8-2.4,2.8c-0.4,0.5-0.7,1-1.1,1.5L46.2,31
		c-2.8,4.3-5.2,8.9-7.4,13.6c-2.2,4.7-4.2,9.5-6,14.4c-7,19.5-11,40.2-10.7,61c0.2,10.3,2,20.6,4.4,30.7c2.4,10.1,5.5,20.1,9.1,30
		c3.6,9.8,7.7,19.5,12.4,28.8c2.4,4.7,4.9,9.2,7.7,13.7c2.8,4.4,5.8,8.7,9.2,12.6c1.7,1.9,3.6,3.8,5.6,5.4c2,1.6,4.2,3,6.6,3.7
		c1.2,0.3,2.4,0.4,3.5,0.1c1.1-0.3,2.1-1,3-1.8c1.8-1.7,3-4,3.9-6.4c1.9-4.8,3-9.9,3.8-15.1c0.8-5.2,1.4-10.4,1.8-15.6
		c0.4-5.2,0.6-10.5,0.8-15.7c0.1-5.2,0.2-10.5,0.1-15.7c0-10.5-0.3-21-0.7-31.5l-0.6-15.7c-0.2-5.2-0.8-10.4-1.4-15.6
		c-0.7-5.2-1.5-10.3-2.5-15.4c-1-5.1-2.1-10.2-3.4-15.3c-1.3-5-2.8-10.1-4.6-14.8c-0.5-1.2-1-2.3-1.5-3.4c-0.3-0.5-0.6-1-0.9-1.5
		c-0.1-0.2-0.3-0.4-0.4-0.5l-0.7-0.7c-1.8-1.9-3.6-3.8-5.4-5.4c-1.9-1.6-3.9-3.1-6-4c-2.1-1-4.3-1.4-6.5-1.2
		c-2.2,0.2-4.3,1.1-6.2,2.5c-0.5,0.3-1,0.7-1.4,1.1c-0.5,0.4-0.9,0.8-1.4,1.2c-0.9,0.8-1.9,1.7-2.8,2.6
		c-7.3,7.3-13.9,15.4-19.9,23.8c-5.9,8.5-11.3,17.4-15.1,26.9c-0.9,2.4-1.7,4.8-2.3,7.2c-0.6,2.4-1,5-1.5,7.5
		c-0.9,5.1-1.5,10.2-1.8,15.4c-0.6,10.3,0,20.6,2.2,30.6c2.1,10,5.8,19.7,10.9,28.6c0.6,1.1,1.3,2.2,2,3.3l2.1,3.3l4.2,6.6
		c2.8,4.4,5.7,8.8,8.7,13c3,4.3,6.1,8.4,9.4,12.4c3.3,4,6.8,7.8,10.6,11.1c3.8,3.3,8.1,6.2,12.7,7.6c2.3,0.7,4.7,1,7.1,0.9
		c2.4-0.2,4.7-0.9,6.9-2c1.1-0.6,2.1-1.2,3.1-2c0.9-0.7,1.9-1.5,2.7-2.4c1.7-1.8,3.2-3.9,4.5-6c2.7-4.4,4.7-9.2,6.4-14.1
		c3.4-9.9,5.5-20.2,7.2-30.5C111,177.4,112.1,156.3,112.3,135.4z M112.8,135.4c0,10.5-0.3,21-0.9,31.5c-0.6,10.5-1.5,21-2.8,31.4
		c-1.4,10.4-3.2,20.9-6.4,31c-1.6,5.1-3.5,10.1-6.2,14.8c-1.3,2.3-2.9,4.6-4.7,6.7c-0.9,1-1.9,2-3.1,2.9c-1.1,0.8-2.2,1.6-3.5,2.3
		c-2.5,1.4-5.2,2.3-8.1,2.7c-2.9,0.3-5.8,0-8.5-0.7c-5.5-1.5-10.2-4.6-14.4-8c-8.4-6.9-15-15.4-21.3-23.9c-3.1-4.3-6.1-8.7-9-13.1
		l-4.3-6.7l-2.1-3.3c-0.7-1.1-1.4-2.3-2.1-3.5c-5.4-9.3-9.4-19.5-11.7-30C1.7,158.9,1,148,1.7,137.3c0.3-5.4,1-10.7,1.9-15.9
		c0.5-2.6,0.9-5.2,1.6-7.9c0.7-2.7,1.6-5.2,2.6-7.8c4.1-10.1,9.7-19.2,15.9-27.9c6.2-8.6,13-16.8,20.7-24.3c1-0.9,1.9-1.8,3-2.8
		c0.5-0.4,1-0.9,1.6-1.3c0.6-0.4,1.1-0.9,1.7-1.3c2.4-1.6,5.3-2.9,8.4-3.2c3.1-0.3,6.2,0.4,8.8,1.7c2.7,1.3,4.9,3,7,4.8
		c2.1,1.8,3.9,3.9,5.6,5.8l0.7,0.7c0.4,0.4,0.6,0.7,0.8,1.1c0.5,0.7,0.8,1.3,1.1,2c0.6,1.3,1.1,2.5,1.6,3.8
		c1.9,5.1,3.3,10.2,4.6,15.3c2.5,10.3,4.3,20.7,5.5,31.3c0.6,5.3,1,10.5,1.1,15.9l0.2,15.8c0.3,21,0.4,42.1-1.2,63.1
		c-0.4,5.3-1,10.5-1.9,15.7c-0.9,5.2-2,10.4-4,15.4c-1,2.5-2.3,4.9-4.3,6.9c-1,1-2.2,1.8-3.7,2.2c-1.4,0.4-2.9,0.3-4.3-0.1
		c-2.7-0.8-5-2.3-7.1-3.9c-2.1-1.7-4-3.5-5.8-5.5c-3.6-4-6.7-8.3-9.6-12.7c-2.9-4.4-5.5-9-8-13.7c-5-9.3-9.3-19-13.2-28.8
		c-3.8-9.8-7.2-19.9-9.9-30.1c-1.3-5.1-2.5-10.3-3.4-15.5c-0.9-5.2-1.6-10.6-1.7-15.9c-0.3-10.7,0.5-21.3,2.4-31.8
		c1.8-10.5,4.6-20.8,8.3-30.8c3.7-10,8.2-19.7,14.1-28.6c2.9-4.5,6.9-9,12.3-11.2c2.7-1.1,5.6-1.6,8.4-1.5c2.9,0.1,5.7,0.9,8.2,2
		c2.6,1.2,4.9,2.8,6.9,4.7c1,1,1.9,2,2.8,3.1c0.9,1.1,1.6,2.2,2.3,3.4c2.8,4.6,5.2,9.3,7.3,14.2c4.3,9.7,7.6,19.7,10.6,29.8
		c2.9,10.1,5.4,20.3,7.4,30.7c1,5.2,1.9,10.3,2.6,15.6C112.3,124.8,112.8,130.1,112.8,135.4z"/>
</g>
<g>
	<path fill="#FFFFFF" d="M122.4,170.9l5.8-0.8v4.5c1.5-2.6,4.5-4.5,8.8-4.5c7.3,0,12,5.9,12,14.4c0,9.5-5.2,15.9-13.5,15.9
		c-3.3,0-5.9-0.9-7.3-2.5v14.9h-5.8C122.4,212.8,122.4,170.9,122.4,170.9z M128.2,178.7v14.9c1.6,1.6,3.6,2.4,6.2,2.4
		c5.5,0,8.5-4.2,8.5-11.1c0-6.2-2.5-10-7.8-10C131.7,174.9,129.3,176.6,128.2,178.7z"/>
	<path fill="#FFFFFF" d="M154,185.4c0-8.7,4.9-15.3,13.8-15.3c7.9,0,12,4.5,12,10.5c0,2.8-0.4,4.3-0.6,5.3h-19.1
		c0.1,6.7,3.8,9.5,8.9,9.5c4.4,0,7.6-1.8,9.5-4.3l0.7,4.2c-1.2,2.3-4.8,5.1-11,5.1C159.4,200.4,154,195,154,185.4z M160.3,182.4H174
		v-1c0-3.5-1.4-6.6-6.2-6.6C163.7,174.8,161.1,177.5,160.3,182.4z"/>
	<path fill="#FFFFFF" d="M184.7,185.3c0-9.8,6-15.2,14.3-15.2c8.3,0,14.3,5.5,14.3,15.2c0,9.7-5.8,15.2-14.3,15.2
		C190.6,200.5,184.7,194.9,184.7,185.3z M207.4,185.3c0-6.8-3.2-10.2-8.3-10.2c-5.2,0-8.3,3.5-8.3,10.2s3.1,10.2,8.3,10.2
		C204.1,195.4,207.4,192,207.4,185.3z"/>
	<path fill="#FFFFFF" d="M220.9,170.9l5.8-0.8v4.5c1.5-2.6,4.5-4.5,8.8-4.5c7.3,0,12,5.9,12,14.4c0,9.5-5.2,15.9-13.5,15.9
		c-3.3,0-5.9-0.9-7.3-2.5v14.9h-5.8L220.9,170.9L220.9,170.9z M226.7,178.7v14.9c1.6,1.6,3.6,2.4,6.2,2.4c5.5,0,8.5-4.2,8.5-11.1
		c0-6.2-2.5-10-7.8-10C230.3,174.9,227.9,176.6,226.7,178.7z"/>
	<path fill="#FFFFFF" d="M255.1,156.2l5.8-0.8v44.5h-5.8V156.2z"/>
	<path fill="#FFFFFF" d="M268.5,185.4c0-8.7,4.9-15.3,13.8-15.3c7.9,0,12,4.5,12,10.5c0,2.8-0.4,4.3-0.6,5.3h-19.1
		c0.1,6.7,3.8,9.5,8.9,9.5c4.4,0,7.6-1.8,9.5-4.3l0.7,4.2c-1.2,2.3-4.8,5.1-11,5.1C273.9,200.4,268.5,195,268.5,185.4z M274.8,182.4
		h13.7v-1c0-3.5-1.4-6.6-6.2-6.6C278.1,174.8,275.5,177.5,274.8,182.4z"/>
	<path fill="#FFFFFF" d="M119.8,238.1c0-9.8,6-15.2,14.3-15.2c8.3,0,14.3,5.5,14.3,15.2c0,9.7-5.8,15.2-14.3,15.2
		S119.8,247.8,119.8,238.1z M142.4,238.1c0-6.8-3.2-10.2-8.3-10.2c-5.2,0-8.3,3.5-8.3,10.2c0,6.8,3.1,10.2,8.3,10.2
		C139.2,248.3,142.4,244.9,142.4,238.1z"/>
	<path fill="#FFFFFF" d="M153.1,223.9h3.9v-3.3c0-8.2,3.8-12.3,10.6-12.3c5.7,0,8.9,2.6,8.9,7.6c0,1.2-0.3,2.7-0.6,3.5l-4.7,0.6
		c0-0.1,0.2-1.5,0.2-2.4c0-3.5-1.4-4.8-3.9-4.8c-3.6,0-4.8,2.8-4.8,7.3v3.9h8.3v4.7h-8.3v24.2H157v-24.2h-4.8L153.1,223.9z"/>
	<path fill="#FFFFFF" d="M186.4,223.9h3.4v-0.3c0-2.6,0.4-5.5,1-7.2l4.9-0.7v8.2h9v4.7h-9v15.2c0,3.4,1.6,4.5,4.1,4.5
		c2.5,0,4.5-1.1,5.7-2.6l0.8,3.6c-1.1,2.1-3.8,4-7.9,4c-5.2,0-8.5-2.6-8.5-9.2v-15.5h-4.5L186.4,223.9z"/>
	<path fill="#FFFFFF" d="M209.9,238.1c0-9.8,6-15.2,14.3-15.2c8.3,0,14.3,5.5,14.3,15.2c0,9.7-5.8,15.2-14.3,15.2
		C215.8,253.3,209.9,247.8,209.9,238.1z M232.5,238.1c0-6.8-3.2-10.2-8.3-10.2c-5.2,0-8.3,3.5-8.3,10.2c0,6.8,3.1,10.2,8.3,10.2
		C229.3,248.3,232.5,244.9,232.5,238.1z"/>
	<path fill="#FFFFFF" d="M246.1,223.7l5.8-0.8v4.6c1.4-2.7,4.3-4.6,8.5-4.6c4.8,0,7.7,2,9.2,5.7c1.2-3.2,4.5-5.7,9.4-5.7
		c7.3,0,10.4,4.7,10.4,12.7v17.1h-5.8v-17.1c0-5.7-2.1-7.9-6.4-7.9c-3.4,0-5.6,1.9-6.8,4.1c0.2,1.2,0.3,2.5,0.3,3.8v17.1h-5.8v-17.1
		c0-5.7-2-7.9-6.3-7.9c-3.4,0-5.6,1.8-6.7,3.9v21h-5.8L246.1,223.7L246.1,223.7z"/>
	<path fill="#FFFFFF" d="M296.2,238.1c0-9.8,6-15.2,14.3-15.2c8.3,0,14.3,5.5,14.3,15.2c0,9.7-5.8,15.2-14.3,15.2
		C302.1,253.3,296.2,247.8,296.2,238.1z M318.8,238.1c0-6.8-3.2-10.2-8.3-10.2c-5.2,0-8.3,3.5-8.3,10.2c0,6.8,3.1,10.2,8.3,10.2
		C315.6,248.3,318.8,244.9,318.8,238.1z"/>
	<path fill="#FFFFFF" d="M332.4,223.7l5.8-0.8v4.8c1-2.6,3.5-4.8,6.9-4.8c4.8,0,6.3,3.2,6.3,6.5c0,1.2-0.3,2.6-0.6,3.4l-4.9,0.8
		c0.1-0.2,0.3-1.6,0.3-2.5c0-2.6-0.9-3.6-3-3.6c-2.5,0-4.5,2.6-5,4.7v20.6h-5.8L332.4,223.7L332.4,223.7z"/>
	<path fill="#FFFFFF" d="M356.8,223.7l5.8-0.8v4.8c1-2.6,3.5-4.8,6.9-4.8c4.8,0,6.3,3.2,6.3,6.5c0,1.2-0.3,2.6-0.6,3.4l-4.9,0.8
		c0.1-0.2,0.3-1.6,0.3-2.5c0-2.6-0.9-3.6-3-3.6c-2.5,0-4.5,2.6-5.1,4.7v20.6h-5.8V223.7z"/>
	<path fill="#FFFFFF" d="M378.8,238.1c0-9.8,6-15.2,14.3-15.2c8.3,0,14.3,5.5,14.3,15.2c0,9.7-5.8,15.2-14.3,15.2
		S378.8,247.8,378.8,238.1z M401.4,238.1c0-6.8-3.2-10.2-8.3-10.2c-5.2,0-8.3,3.5-8.3,10.2c0,6.8,3.1,10.2,8.3,10.2
		C398.1,248.3,401.4,244.9,401.4,238.1z"/>
	<path fill="#FFFFFF" d="M410.2,223.9h6.2l6.9,21.3l7.3-21.3h3.2l6.6,21.3l7.9-21.3h5.8l-11.3,29.3h-5.6l-5.6-17.6l-6.2,17.6h-5.2
		L410.2,223.9z"/>
</g>
</svg>
