<?xml version="1.0" encoding="utf-8"?>
<!-- Generator: Adobe Illustrator 15.0.0, SVG Export Plug-In . SVG Version: 6.00 Build 0)  -->
<!DOCTYPE svg PUBLIC "-//W3C//DTD SVG 1.1//EN" "http://www.w3.org/Graphics/SVG/1.1/DTD/svg11.dtd">
<svg version="1.1" id="Layer_1" xmlns="http://www.w3.org/2000/svg" xmlns:xlink="http://www.w3.org/1999/xlink" x="0px" y="0px"
	 width="1024px" height="1000px" viewBox="0 0 1024 1000" enable-background="new 0 0 1024 1000" xml:space="preserve">
<path opacity="0.6" fill="#0095FF" d="M360.785,594.409c-2.37,0.65-4.949,0.625-7.269-0.267c-2.334-0.884-4.193-2.77-5.333-4.954
	c-1.159-2.193-1.754-4.628-2.07-7.059c-0.298-2.442-0.394-4.885-0.375-7.335c0.14-9.796,1.708-19.484,3.591-29.054
	c1.915-9.574,4.249-19.055,6.789-28.475c2.548-9.418,5.3-18.78,8.251-28.077c2.943-9.3,6.034-18.552,9.277-27.753
	c1.625-4.6,3.281-9.188,5.023-13.752c0.853-2.279,1.812-4.577,2.83-6.792c1.007-2.232,2.072-4.446,3.214-6.621
	c4.549-8.722,10.38-16.71,16.822-24.08c3.231-3.678,6.577-7.26,10.136-10.638c3.553-3.376,7.26-6.58,11.085-9.635
	c7.663-6.086,15.797-11.619,24.526-16.109c4.371-2.221,8.905-4.177,13.664-5.5c2.378-0.655,4.815-1.144,7.295-1.337
	c2.475-0.187,5.009-0.078,7.447,0.577c2.421,0.647,4.767,1.859,6.522,3.722c1.765,1.844,2.904,4.169,3.614,6.547
	c1.396,4.802,1.366,9.809,0.972,14.676c-0.893,9.772-3.381,19.277-6.273,28.587c-5.875,18.632-13.862,36.477-21.92,54.218
	c-8.151,17.712-16.734,35.243-26.333,52.239c-4.815,8.485-9.868,16.855-15.585,24.801c-5.763,7.893-11.846,15.53-18.2,22.949
	c-6.366,7.404-12.999,14.596-20.125,21.312c-3.567,3.352-7.263,6.584-11.204,9.533c-3.954,2.912-8.1,5.698-12.903,7.364
	c-2.384,0.781-5.068,1.303-7.744,0.542c-1.319-0.379-2.554-1.127-3.508-2.104c-0.959-0.977-1.667-2.134-2.188-3.326
	c-1.039-2.397-1.465-4.919-1.696-7.399c-0.224-2.443-0.372-4.896-0.465-7.345c-0.353-9.801,0.082-19.595,0.992-29.335
	c0.925-9.74,2.367-19.438,4.539-28.999c1.091-4.778,2.365-9.524,3.966-14.181c1.625-4.642,3.5-9.252,6.293-13.451
	c1.414-2.072,3.075-4.088,5.35-5.521c1.133-0.705,2.446-1.227,3.838-1.377c0.693-0.079,1.398-0.06,2.083,0.042
	c0.176,0.031,0.329,0.048,0.523,0.095c0.156,0.037,0.28,0.057,0.468,0.111c0.359,0.097,0.677,0.2,0.999,0.331
	c1.286,0.51,2.433,1.339,3.341,2.329c0.916,0.989,1.622,2.114,2.191,3.273c1.127,2.331,1.756,4.793,2.191,7.248
	c0.841,4.924,0.922,9.872,0.779,14.78c-0.153,4.912-0.618,9.795-1.224,14.651c-0.61,4.856-1.378,9.688-2.257,14.496
	c-0.904,4.82-1.827,9.563-3.047,14.382c-1.401,4.717-3.025,9.315-4.756,13.894c-1.742,4.568-3.62,9.09-5.733,13.512
	c-2.134,4.406-4.435,8.77-7.462,12.715c-1.541,1.932-3.24,3.862-5.627,5.039c-1.18,0.568-2.645,0.841-3.997,0.438
	c-1.351-0.384-2.43-1.276-3.263-2.25c-1.669-1.987-2.641-4.328-3.445-6.661c-0.786-2.35-1.342-4.753-1.78-7.17
	c-0.862-4.838-1.246-9.734-1.355-14.626c-0.194-9.782,0.739-19.588,2.901-29.124c1.094-4.763,2.515-9.461,4.434-13.96
	c1.925-4.483,4.35-8.81,7.626-12.453l0.149,0.133c-3.2,3.669-5.542,8.001-7.387,12.483c-1.839,4.497-3.18,9.188-4.196,13.936
	c-2,9.509-2.771,19.263-2.528,28.961c0.147,4.848,0.569,9.694,1.456,14.447c0.449,2.374,1.015,4.726,1.794,6.993
	c0.788,2.247,1.765,4.485,3.264,6.23c0.746,0.86,1.653,1.563,2.667,1.84c1.011,0.291,2.103,0.096,3.103-0.389
	c2.016-1.001,3.659-2.828,5.11-4.695c2.886-3.819,5.135-8.147,7.206-12.517c2.056-4.389,3.884-8.891,5.579-13.44
	c1.681-4.55,3.267-9.162,4.604-13.799c1.135-4.638,2.045-9.476,2.897-14.239c0.837-4.785,1.561-9.59,2.128-14.408
	c0.564-4.817,0.972-9.651,1.13-14.481c0.136-4.823,0.041-9.675-0.769-14.367c-0.415-2.335-1.02-4.641-2.023-6.702
	c-0.995-2.048-2.478-3.833-4.461-4.599c-0.242-0.1-0.505-0.182-0.734-0.244c-0.103-0.035-0.281-0.067-0.421-0.101
	c-0.102-0.026-0.252-0.043-0.375-0.066c-0.52-0.077-1.043-0.09-1.561-0.03c-1.036,0.114-2.046,0.506-2.978,1.087
	c-1.871,1.173-3.41,2.988-4.721,4.929c-2.613,3.933-4.456,8.432-6.034,12.974c-1.563,4.563-2.814,9.246-3.886,13.969
	c-2.123,9.455-3.556,19.076-4.523,28.732c-0.938,9.659-1.401,19.38-1.085,29.063c0.083,2.421,0.221,4.835,0.434,7.245
	c0.207,2.359,0.617,4.711,1.516,6.797c0.882,2.084,2.403,3.805,4.471,4.383c2.059,0.607,4.416,0.225,6.616-0.499
	c4.444-1.517,8.531-4.206,12.403-7.048c3.87-2.884,7.542-6.055,11.104-9.345c7.111-6.603,13.768-13.71,20.162-21.035
	c6.381-7.337,12.507-14.913,18.299-22.72c5.729-7.839,10.834-16.143,15.694-24.572c9.664-16.903,18.333-34.373,26.57-52.027
	c4.102-8.835,8.105-17.722,11.908-26.688c3.766-8.98,7.158-18.121,10.055-27.412c1.439-4.647,2.74-9.339,3.812-14.08
	c1.062-4.74,1.928-9.534,2.297-14.367c0.346-4.811,0.309-9.742-1.077-14.324c-0.702-2.269-1.8-4.431-3.436-6.104
	c-1.618-1.685-3.775-2.777-6.052-3.365c-4.604-1.159-9.518-0.403-14.113,0.894c-4.627,1.334-9.072,3.299-13.361,5.532
	c-8.577,4.502-16.566,10.094-24.134,16.154c-3.78,3.039-7.444,6.225-10.946,9.573c-3.5,3.342-6.805,6.901-9.993,10.553
	c-6.349,7.321-12.063,15.205-16.59,23.75c-1.132,2.136-2.189,4.311-3.194,6.516c-1.024,2.21-1.951,4.407-2.816,6.689
	c-1.75,4.534-3.421,9.108-5.06,13.692c-3.271,9.17-6.393,18.396-9.365,27.669c-5.906,18.55-11.453,37.25-15.476,56.295
	c-0.997,4.762-1.872,9.548-2.593,14.355c-0.709,4.808-1.247,9.646-1.367,14.499c-0.057,2.421,0.001,4.859,0.257,7.26
	c0.273,2.394,0.821,4.782,1.912,6.926c1.074,2.135,2.827,3.969,5.07,4.861c2.226,0.898,4.769,0.967,7.093,0.366L360.785,594.409z"/>
<path opacity="0.5" fill="#0095FF" d="M394.697,503.743c-0.011-5.355-0.581-10.699-1.298-16.008
	c-0.739-5.31-1.654-10.597-2.746-15.847c-2.2-10.495-4.853-20.901-8.101-31.116c-3.24-10.211-6.938-20.292-11.478-29.961
	c-2.28-4.824-4.778-9.549-7.678-13.983c-0.729-1.102-1.474-2.219-2.267-3.188c-0.812-0.995-1.698-1.928-2.652-2.786
	c-1.905-1.714-4.072-3.135-6.4-4.143c-2.326-1.01-4.822-1.591-7.313-1.631c-2.491-0.045-4.967,0.466-7.229,1.484
	c-2.268,1.014-4.315,2.513-6.106,4.295c-0.896,0.892-1.733,1.853-2.507,2.87c-0.384,0.51-0.759,1.032-1.117,1.561l-1.09,1.653
	c-2.844,4.439-5.325,9.143-7.583,13.944c-2.27,4.798-4.303,9.715-6.115,14.712c-7.193,19.987-11.291,41.209-10.904,62.449
	c0.19,10.551,2.11,21.1,4.585,31.465c2.514,10.372,5.702,20.597,9.384,30.636c3.696,10.035,7.894,19.898,12.734,29.437
	c2.425,4.766,5.061,9.424,7.911,13.938c2.86,4.504,5.95,8.877,9.48,12.849c1.767,1.979,3.65,3.855,5.709,5.496
	c2.054,1.623,4.316,3.053,6.767,3.771c1.205,0.348,2.463,0.416,3.64,0.093c1.179-0.313,2.25-1.001,3.161-1.878
	c1.831-1.778,3.056-4.175,4.056-6.599c1.962-4.912,3.051-10.177,3.916-15.437c0.843-5.274,1.395-10.602,1.806-15.938
	c0.819-10.678,1.047-21.403,1.011-32.124c-0.026-10.722-0.303-21.442-0.653-32.167l-0.528-16.08
	c-0.241-5.319-0.748-10.634-1.43-15.925c-0.684-5.292-1.548-10.563-2.557-15.805c-1-5.243-2.148-10.458-3.473-15.62
	c-1.337-5.15-2.81-10.292-4.704-15.18c-0.478-1.214-0.988-2.413-1.557-3.527c-0.285-0.553-0.587-1.091-0.9-1.542
	c-0.154-0.224-0.315-0.427-0.446-0.558l-0.717-0.733c-1.877-1.979-3.643-3.887-5.585-5.586c-1.928-1.696-3.998-3.184-6.212-4.205
	c-2.209-1.024-4.568-1.518-6.877-1.269c-2.312,0.235-4.55,1.194-6.573,2.583c-1.033,0.706-1.935,1.463-2.939,2.379
	c-0.959,0.867-1.927,1.782-2.867,2.702c-7.52,7.435-14.301,15.717-20.446,24.374c-6.091,8.683-11.628,17.84-15.492,27.583
	c-0.948,2.436-1.785,4.906-2.423,7.405c-0.626,2.461-1.084,5.121-1.547,7.716c-0.894,5.222-1.531,10.48-1.852,15.753
	c-0.65,10.541,0.017,21.15,2.239,31.437c2.197,10.288,5.997,20.222,11.221,29.366c0.648,1.146,1.328,2.274,2.016,3.397l2.122,3.411
	l4.291,6.783c2.893,4.496,5.805,8.972,8.867,13.333c3.057,4.364,6.239,8.632,9.633,12.702c3.398,4.062,7.008,7.943,10.989,11.34
	c3.974,3.373,8.369,6.312,13.199,7.819c2.408,0.739,4.918,1.07,7.396,0.854c2.478-0.206,4.903-0.966,7.146-2.141
	c1.125-0.59,2.197-1.268,3.238-2.043c0.98-0.74,1.95-1.61,2.828-2.538c1.774-1.859,3.306-3.986,4.665-6.228
	c2.712-4.499,4.762-9.434,6.481-14.466c3.405-10.1,5.56-20.633,7.24-31.205C393.334,546.687,394.505,525.192,394.697,503.743z
	 M395.098,503.743c-0.019,10.739-0.355,21.477-0.972,32.199c-0.593,10.726-1.563,21.432-2.962,32.095
	c-1.447,10.651-3.365,21.284-6.588,31.62c-1.637,5.153-3.594,10.248-6.31,15.022c-1.364,2.38-2.925,4.678-4.807,6.753
	c-0.944,1.043-1.95,2.002-3.089,2.907c-1.091,0.855-2.272,1.647-3.508,2.335c-2.473,1.377-5.246,2.332-8.117,2.643
	c-2.87,0.324-5.787,0.007-8.524-0.762c-5.509-1.553-10.255-4.701-14.49-8.178c-4.241-3.513-8.023-7.471-11.572-11.585
	c-3.543-4.123-6.846-8.421-10.013-12.803c-3.16-4.386-6.208-8.841-9.138-13.362l-4.353-6.803l-2.148-3.413
	c-0.72-1.162-1.431-2.33-2.11-3.516c-5.475-9.469-9.492-19.803-11.833-30.5c-2.352-10.701-2.997-21.725-2.327-32.603
	c0.336-5.442,0.996-10.855,1.918-16.212c0.477-2.687,0.941-5.322,1.654-8.06c0.708-2.698,1.615-5.315,2.629-7.873
	c4.129-10.21,9.863-19.517,16.137-28.35c6.335-8.801,13.257-17.157,21.055-24.773c0.983-0.951,1.972-1.875,3.01-2.8
	c0.982-0.887,2.142-1.858,3.335-2.655c2.397-1.627,5.241-2.865,8.292-3.155c3.048-0.313,6.123,0.386,8.761,1.637
	c2.661,1.248,4.959,2.981,7.038,4.843c2.08,1.86,3.941,3.922,5.735,5.854l0.682,0.713c0.336,0.352,0.582,0.686,0.806,1.015
	c0.443,0.658,0.788,1.299,1.111,1.941c0.637,1.284,1.162,2.564,1.653,3.852c1.927,5.148,3.352,10.365,4.655,15.614
	c2.565,10.501,4.454,21.14,5.663,31.871c0.601,5.365,1.024,10.754,1.178,16.163l0.259,16.114c0.39,21.471,0.484,42.993-1.145,64.456
	c-0.442,5.362-1.025,10.72-1.905,16.041c-0.904,5.311-2.026,10.629-4.077,15.691c-1.047,2.509-2.34,4.996-4.355,7.002
	c-1.009,0.985-2.255,1.814-3.676,2.204c-1.417,0.401-2.938,0.32-4.307-0.067c-2.723-0.781-5.092-2.278-7.248-3.951
	c-2.153-1.69-4.098-3.604-5.918-5.613c-3.634-4.029-6.79-8.435-9.714-12.966c-2.923-4.535-5.577-9.23-8.104-13.987
	c-5.05-9.52-9.454-19.367-13.359-29.407c-3.894-10.046-7.288-20.293-10.014-30.743c-1.359-5.226-2.544-10.504-3.471-15.845
	c-0.911-5.335-1.604-10.76-1.729-16.217c-0.319-10.854,0.533-21.729,2.432-32.403c1.886-10.677,4.724-21.181,8.499-31.34
	c3.778-10.153,8.342-20.048,14.341-29.182c2.914-4.584,6.952-9.064,12.333-11.292c2.659-1.125,5.58-1.654,8.454-1.532
	c2.877,0.115,5.691,0.85,8.259,2.037c2.571,1.186,4.913,2.806,6.952,4.728c1.02,0.962,1.962,2.002,2.822,3.107
	c0.879,1.133,1.595,2.272,2.32,3.424c2.87,4.622,5.286,9.471,7.484,14.397c4.368,9.872,7.851,20.076,10.873,30.393
	c2.98,10.33,5.592,20.763,7.637,31.312c1.02,5.274,1.957,10.566,2.665,15.893C394.554,492.998,395.105,498.358,395.098,503.743z"/>
<path opacity="0.5" fill="#0095FF" d="M394.647,503.742c-0.014-5.351-0.585-10.692-1.305-16c-0.743-5.308-1.655-10.594-2.756-15.841
	c-2.22-10.489-4.878-20.891-8.159-31.092c-3.268-10.198-6.992-20.263-11.554-29.907c-2.291-4.811-4.798-9.521-7.703-13.932
	c-0.729-1.096-1.478-2.21-2.26-3.158c-0.806-0.98-1.685-1.901-2.63-2.745c-1.889-1.688-4.034-3.084-6.332-4.07
	c-4.584-2.01-9.846-2.158-14.271-0.103c-2.218,1.001-4.222,2.479-5.982,4.238c-0.881,0.88-1.704,1.829-2.466,2.835
	c-0.379,0.504-0.748,1.021-1.101,1.544l-1.082,1.647c-2.823,4.424-5.288,9.12-7.53,13.911c-2.259,4.787-4.284,9.693-6.087,14.68
	c-7.157,19.946-11.258,41.108-10.901,62.288c0.172,10.502,2.058,21.035,4.508,31.39c2.487,10.362,5.65,20.583,9.306,30.623
	c3.669,10.034,7.841,19.898,12.656,29.439c2.412,4.767,5.026,9.431,7.859,13.949c2.848,4.505,5.903,8.896,9.437,12.854
	c1.766,1.974,3.647,3.843,5.701,5.475c2.047,1.614,4.302,3.032,6.725,3.738c1.187,0.341,2.417,0.404,3.565,0.088
	c1.15-0.308,2.199-0.981,3.096-1.847c1.802-1.755,3.023-4.136,4.016-6.551c1.951-4.893,3.036-10.151,3.896-15.404
	c0.838-5.27,1.386-10.593,1.793-15.926c0.403-5.335,0.656-10.686,0.82-16.039c0.139-5.354,0.172-10.713,0.151-16.072
	c-0.045-10.718-0.342-21.437-0.712-32.159l-0.561-16.075c-0.252-5.309-0.769-10.613-1.461-15.896
	c-0.693-5.283-1.568-10.545-2.586-15.777c-1.006-5.234-2.16-10.441-3.49-15.591c-1.341-5.138-2.82-10.27-4.709-15.125
	c-0.477-1.205-0.985-2.393-1.545-3.487c-0.28-0.542-0.577-1.067-0.874-1.492c-0.146-0.21-0.296-0.397-0.402-0.5l-0.721-0.736
	c-1.887-1.985-3.641-3.874-5.566-5.553c-1.909-1.675-3.95-3.133-6.109-4.125c-2.155-0.996-4.424-1.464-6.642-1.223
	c-2.219,0.228-4.381,1.152-6.357,2.512c-0.495,0.338-0.978,0.705-1.451,1.091c-0.468,0.379-0.929,0.797-1.438,1.254
	c-0.95,0.859-1.914,1.773-2.849,2.689c-7.485,7.412-14.249,15.686-20.37,24.324c-6.068,8.664-11.581,17.803-15.411,27.488
	c-0.94,2.42-1.769,4.873-2.397,7.346c-0.616,2.427-1.073,5.089-1.534,7.673c-0.891,5.205-1.524,10.444-1.844,15.696
	c-0.647,10.499,0.022,21.058,2.229,31.291c2.179,10.237,5.952,20.12,11.145,29.225c0.645,1.141,1.319,2.265,2.003,3.383l2.119,3.411
	l4.283,6.78c2.886,4.494,5.798,8.961,8.855,13.314c3.051,4.354,6.227,8.61,9.609,12.666c3.369,4.06,6.946,7.939,10.886,11.33
	c3.931,3.367,8.274,6.294,13.022,7.792c2.367,0.736,4.827,1.068,7.254,0.866c2.429-0.193,4.811-0.928,7.025-2.077
	c1.11-0.578,2.17-1.242,3.205-2.007c0.96-0.72,1.926-1.579,2.795-2.492c1.761-1.832,3.29-3.938,4.647-6.162
	c2.712-4.464,4.773-9.379,6.502-14.396c3.428-10.07,5.612-20.591,7.322-31.154C393.257,546.684,394.445,525.189,394.647,503.742z
	 M395.147,503.744c-0.01,10.739-0.344,21.478-0.948,32.203c-0.572,10.729-1.535,21.437-2.898,32.11
	c-1.418,10.66-3.306,21.306-6.507,31.672c-1.627,5.167-3.572,10.282-6.289,15.092c-1.364,2.396-2.93,4.717-4.825,6.818
	c-0.952,1.058-1.962,2.027-3.122,2.954c-1.097,0.864-2.292,1.671-3.542,2.37c-2.502,1.403-5.318,2.383-8.238,2.706
	c-2.919,0.338-5.888,0.021-8.666-0.75c-5.591-1.563-10.389-4.723-14.667-8.205c-8.544-7.083-15.352-15.686-21.712-24.433
	c-3.167-4.395-6.213-8.858-9.149-13.382l-4.36-6.805l-2.151-3.414c-0.724-1.167-1.439-2.339-2.122-3.531
	c-5.507-9.509-9.551-19.892-11.91-30.641c-2.368-10.753-3.01-21.828-2.338-32.748c0.338-5.463,1.001-10.896,1.926-16.27
	c0.479-2.698,0.944-5.33,1.668-8.102c0.716-2.724,1.632-5.358,2.655-7.932c4.163-10.269,9.921-19.593,16.217-28.446
	c6.359-8.819,13.298-17.184,21.13-24.823c0.989-0.954,1.98-1.879,3.028-2.812c0.493-0.435,1.029-0.915,1.608-1.376
	c0.57-0.458,1.16-0.899,1.776-1.312c2.445-1.657,5.364-2.93,8.507-3.227c3.141-0.321,6.305,0.403,8.997,1.683
	c2.716,1.276,5.043,3.04,7.141,4.923c2.097,1.88,3.97,3.961,5.754,5.888l0.678,0.711c0.362,0.379,0.617,0.729,0.851,1.072
	c0.459,0.684,0.81,1.338,1.137,1.992c0.645,1.305,1.172,2.596,1.665,3.893c1.931,5.18,3.35,10.406,4.649,15.668
	c2.558,10.522,4.431,21.177,5.617,31.926c0.59,5.374,1.003,10.773,1.146,16.192l0.225,16.119
	c0.359,21.476,0.389,43.002-1.243,64.478c-0.446,5.365-1.033,10.726-1.917,16.054c-0.91,5.316-2.035,10.642-4.098,15.723
	c-1.054,2.519-2.352,5.021-4.396,7.05c-1.022,0.997-2.291,1.84-3.741,2.235c-1.446,0.408-2.996,0.322-4.381-0.072
	c-2.751-0.793-5.128-2.302-7.291-3.983c-2.159-1.699-4.106-3.619-5.927-5.635c-3.63-4.045-6.821-8.43-9.757-12.961
	c-2.94-4.532-5.615-9.222-8.156-13.977c-5.076-9.517-9.505-19.363-13.437-29.404c-3.921-10.045-7.34-20.296-10.093-30.756
	c-1.373-5.23-2.57-10.516-3.511-15.867c-0.922-5.345-1.635-10.79-1.766-16.269c-0.331-10.884,0.504-21.791,2.409-32.492
	c1.888-10.705,4.729-21.234,8.524-31.414c3.793-10.177,8.378-20.087,14.422-29.248c2.936-4.602,7.04-9.157,12.522-11.406
	c2.708-1.138,5.685-1.67,8.607-1.538c2.925,0.124,5.78,0.878,8.377,2.087c2.602,1.208,4.965,2.853,7.021,4.801
	c1.028,0.974,1.978,2.028,2.844,3.147c0.89,1.153,1.602,2.294,2.327,3.453c2.866,4.645,5.272,9.51,7.46,14.45
	c4.347,9.896,7.802,20.117,10.797,30.446c2.947,10.345,5.554,20.781,7.579,31.337c1.011,5.277,1.95,10.569,2.655,15.899
	C394.608,492.992,395.158,498.355,395.147,503.744z"/>
<g>
	<path d="M404.896,540.016l5.94-0.78v4.62c1.5-2.7,4.56-4.62,8.939-4.62c7.5,0,12.3,5.999,12.3,14.759
		c0,9.72-5.34,16.199-13.8,16.199c-3.36,0-6.06-0.959-7.439-2.52v15.18h-5.94V540.016z M410.836,547.994v15.24
		c1.62,1.68,3.66,2.459,6.36,2.459c5.64,0,8.7-4.319,8.7-11.339c0-6.3-2.58-10.26-7.98-10.26
		C414.436,544.095,411.976,545.836,410.836,547.994z"/>
	<path d="M437.236,554.834c0-8.879,5.04-15.599,14.099-15.599c8.04,0,12.24,4.56,12.24,10.739c0,2.82-0.42,4.38-0.66,5.46h-19.499
		c0.12,6.84,3.84,9.659,9.12,9.659c4.5,0,7.799-1.8,9.66-4.379l0.72,4.26c-1.2,2.34-4.86,5.219-11.22,5.219
		C442.755,570.193,437.236,564.674,437.236,554.834z M443.655,551.774h13.979v-1.02c0-3.601-1.38-6.72-6.36-6.72
		C447.075,544.035,444.436,546.795,443.655,551.774z"/>
	<path d="M468.616,554.715c0-9.96,6.12-15.539,14.639-15.539s14.58,5.579,14.58,15.539c0,9.899-5.94,15.539-14.58,15.539
		S468.616,564.614,468.616,554.715z M491.714,554.715c0-6.9-3.3-10.439-8.459-10.439c-5.28,0-8.459,3.539-8.459,10.439
		c0,6.899,3.18,10.379,8.459,10.379C488.415,565.094,491.714,561.614,491.714,554.715z"/>
	<path d="M505.575,540.016l5.94-0.78v4.62c1.5-2.7,4.559-4.62,8.94-4.62c7.5,0,12.299,5.999,12.299,14.759
		c0,9.72-5.34,16.199-13.799,16.199c-3.36,0-6.06-0.959-7.44-2.52v15.18h-5.94V540.016z M511.515,547.994v15.24
		c1.62,1.68,3.66,2.459,6.36,2.459c5.64,0,8.699-4.319,8.699-11.339c0-6.3-2.58-10.26-7.979-10.26
		C515.115,544.095,512.655,545.836,511.515,547.994z"/>
	<path d="M540.494,525.016l5.939-0.779v45.478h-5.939V525.016z"/>
	<path d="M554.174,554.834c0-8.879,5.04-15.599,14.1-15.599c8.039,0,12.24,4.56,12.24,10.739c0,2.82-0.42,4.38-0.66,5.46h-19.5
		c0.121,6.84,3.84,9.659,9.12,9.659c4.499,0,7.8-1.8,9.659-4.379l0.721,4.26c-1.2,2.34-4.86,5.219-11.221,5.219
		C559.693,570.193,554.174,564.674,554.174,554.834z M560.594,551.774h13.979v-1.02c0-3.601-1.38-6.72-6.36-6.72
		C564.014,544.035,561.374,546.795,560.594,551.774z"/>
	<path d="M402.317,608.715c0-9.96,6.12-15.539,14.639-15.539s14.58,5.579,14.58,15.539c0,9.899-5.94,15.539-14.58,15.539
		S402.317,618.614,402.317,608.715z M425.416,608.715c0-6.9-3.3-10.439-8.459-10.439c-5.28,0-8.459,3.539-8.459,10.439
		c0,6.899,3.18,10.379,8.459,10.379C422.116,619.094,425.416,615.614,425.416,608.715z"/>
	<path d="M436.277,594.195h4.02v-3.42c0-8.4,3.9-12.539,10.859-12.539c5.82,0,9.12,2.699,9.12,7.739c0,1.26-0.3,2.76-0.6,3.54
		l-4.8,0.6c0-0.12,0.24-1.5,0.24-2.46c0-3.6-1.44-4.92-4.02-4.92c-3.72,0-4.92,2.88-4.92,7.5v3.96h8.459v4.8h-8.459v24.719h-5.88
		v-24.719h-4.92L436.277,594.195z"/>
	<path d="M470.355,594.195h3.48v-0.301c0-2.699,0.36-5.579,1.02-7.379l5.04-0.721v8.4h9.18v4.8h-9.18v15.479
		c0,3.479,1.62,4.619,4.14,4.619c2.58,0,4.62-1.14,5.82-2.699l0.78,3.72c-1.14,2.159-3.84,4.079-8.1,4.079
		c-5.28,0-8.7-2.64-8.7-9.359v-15.839h-4.62L470.355,594.195z"/>
	<path d="M494.295,608.715c0-9.96,6.12-15.539,14.639-15.539s14.579,5.579,14.579,15.539c0,9.899-5.939,15.539-14.579,15.539
		S494.295,618.614,494.295,608.715z M517.395,608.715c0-6.9-3.301-10.439-8.46-10.439c-5.28,0-8.459,3.539-8.459,10.439
		c0,6.899,3.18,10.379,8.459,10.379C514.094,619.094,517.395,615.614,517.395,608.715z"/>
	<path d="M531.255,594.016l5.94-0.78v4.739c1.439-2.76,4.379-4.739,8.699-4.739c4.859,0,7.859,2.04,9.359,5.819
		c1.26-3.3,4.561-5.819,9.6-5.819c7.5,0,10.619,4.8,10.619,13.02v17.459h-5.879v-17.459c0-5.82-2.16-8.04-6.54-8.04
		c-3.479,0-5.76,1.92-6.899,4.14c0.18,1.2,0.3,2.521,0.3,3.9v17.459h-5.94v-17.459c0-5.82-2.039-8.04-6.479-8.04
		c-3.48,0-5.76,1.859-6.84,4.02v21.479h-5.94V594.016z"/>
	<path d="M582.494,608.715c0-9.96,6.12-15.539,14.64-15.539s14.579,5.579,14.579,15.539c0,9.899-5.939,15.539-14.579,15.539
		S582.494,618.614,582.494,608.715z M605.594,608.715c0-6.9-3.301-10.439-8.46-10.439c-5.28,0-8.46,3.539-8.46,10.439
		c0,6.899,3.18,10.379,8.46,10.379C602.293,619.094,605.594,615.614,605.594,608.715z"/>
	<path d="M619.454,594.016l5.94-0.78v4.859c1.02-2.7,3.539-4.859,7.079-4.859c4.86,0,6.42,3.239,6.42,6.659
		c0,1.2-0.3,2.7-0.601,3.48l-4.979,0.779c0.06-0.18,0.3-1.68,0.3-2.58c0-2.699-0.899-3.659-3.06-3.659c-2.579,0-4.56,2.64-5.159,4.8
		v20.999h-5.94V594.016z"/>
	<path d="M644.413,594.016l5.94-0.78v4.859c1.02-2.7,3.539-4.859,7.079-4.859c4.86,0,6.42,3.239,6.42,6.659
		c0,1.2-0.3,2.7-0.601,3.48l-4.979,0.779c0.06-0.18,0.3-1.68,0.3-2.58c0-2.699-0.899-3.659-3.06-3.659c-2.579,0-4.56,2.64-5.159,4.8
		v20.999h-5.94V594.016z"/>
	<path d="M666.793,608.715c0-9.96,6.119-15.539,14.639-15.539s14.58,5.579,14.58,15.539c0,9.899-5.94,15.539-14.58,15.539
		S666.793,618.614,666.793,608.715z M689.891,608.715c0-6.9-3.299-10.439-8.459-10.439c-5.279,0-8.459,3.539-8.459,10.439
		c0,6.899,3.18,10.379,8.459,10.379C686.592,619.094,689.891,615.614,689.891,608.715z"/>
	<path d="M698.893,594.195h6.359l7.02,21.719l7.5-21.719h3.3l6.72,21.719l8.039-21.719h5.881l-11.58,29.879h-5.699l-5.76-18
		l-6.301,18h-5.34L698.893,594.195z"/>
</g>
</svg>
