{
	"TITLE": "Sculpture",
	"NEW_TEXT": "Add new text",
	"ALIGN_LEFT": "Align left",
	"ALIGN_CENTER": "Align center",
	"ALIGN_RIGHT": "Align right",
	"BOLD": "Bold",
	"ITALIC": "Italic",
	"SAVE": "Save",
	"CANCEL": "Cancel",
	"MODAL_WRAP": "Wrap text after",
	"MODAL_CHARACTERS": "characters",
	"NEW_MODAL_TITLE": "Enter your message",
	"EDIT_MODAL_TITLE": "Edit your message",
	"PLACEHOLDER_TEXT": "Enter new text...",
	"PAINTBRUSH": "Paintbrush",
	"BRUSH_SIZE": "Brush size",
	"PREVIEW": "Generate preview",
	"SUBMIT": "Submit your design",
	"SUBMIT_EXTRA": "Once you submit your design you can not go back and edit it...",
	"NO_BACKGROUND": "No background",
	"SELECT_SHAPE": "Select your shape",
	"SQUARE": "110x110mm",
	"RECTANGLE": "225x52mm",
	"SELECT_FONT": "Select font",
	"SELECT_DINGBAT": "Select icon",
	"SELECT_BACKGROUND": "Select background",
	"UPLOAD_DESIGN": "Upload your own design",
	"CONFIRM_TITLE": "Thanks for submitting!",
	"CONFIRM_BODY": "A mail will be sent <u>within 7 days</u> confirming the approval of your message,",
	"CONFIRM_EXTRA": "In case of disapproval you will have a second chance to make your statement.",
	"SUBMIT_BUTTON": "<span class='l1'>Submit</span> <span class='l2'>now</span>",
	"HAVE_CODE": "I already have a code",
	"UPLOAD_CODE_GO": "GO",

	"SPECIAL_REQUEST": "<p>If you have special requirements for your design or want to create something beyond what the editor is capable of please send an email to <a href='mailto:contact@peopleoftomorrow.com'>contact@peopleoftomorrow.com</a> Examples would include school project, large scale designs or designs of that nature.</p>",

	"BREADCRUMB_CHOOSE_TYPE": "Select type",
	"BREADCRUMB_CHOOSE_UPLOAD": "Select method",
	"BREADCRUMB_UPLOAD": "Upload",
	"BREADCRUMB_EDITOR": "Editor",
	"BREADCRUMB_SUBMIT": "Enter credit",
	"BREADCRUMB_CONFIRM": "Confirmation",
	"BACKGROUND_HELP": "Select your background",

	"CHOOSE_TITLE": "Select your message size",
	"CHOOSE_TITLE_EXTRA": "(a credit used for a wrong format will not work)",
	"CHOOSE_SMALL": "Individual message",
	"CHOOSE_SMALL_MORE_INFO": "I have (a) credit(s) for:",
	"CHOOSE_SMALL_MORE_INFO_SECOND": "An individual message",
	"CHOOSE_SMALL_EXTRA": "(10 Euro)",
	"CHOOSE_LARGE": "Individual large",
	"CHOOSE_LARGE_MORE_INFO_SECOND": "A large message",
	"CHOOSE_LARGE_EXTRA": "(40 Euro)",
	"CHOOSE_GROUP": "Group message",
	"CHOOSE_GROUP_MORE_INFO": "I have 1 of the 4 credits for:",
	"CHOOSE_GROUP_MORE_INFO_SECOND": "A group message",
	"CHOOSE_GROUP_EXTRA": "(35 Euro)",
	"CHOOSE_GROUP_MORE_INFO2": "(4 individual credits for the group can be designed separately and will be placed next to each other automaticly)",

	"CHOOSE_UPLOAD_TITLE": "Select method",
	"CHOOSE_UPLOAD": "Upload your own design",
	"CHOOSE_EDIT": "Use the online editor",
	"CHOOSE_UPLOAD_EDITOR_TITLE": "Create your message here",
	"CHOOSE_UPLOAD_EDITOR_LI01": "Create your message here",
	"CHOOSE_UPLOAD_EDITOR_LI02": "Insert icons or choose backgrounds",
	"CHOOSE_UPLOAD_EDITOR_LI03": "Submit design and enter credit",
	"CHOOSE_UPLOAD_EDITOR_LI04": "Eternalize your message on 'One world, by the people of tomorrow'",
	"CHOOSE_UPLOAD_UPLOAD_TITLE": "If you want to be extremely creative",
	"CHOOSE_UPLOAD_UPLOAD_LI01": "Create your own design in illustrator, photoshop or another program",
	"CHOOSE_UPLOAD_UPLOAD_LI02": "Important that exact sizes and technical specifications are 100% correct",
	"CHOOSE_UPLOAD_UPLOAD_LI03": "Save its as png file and upload it",
	"CHOOSE_UPLOAD_UPLOAD_LI04": "Submit design and enter credit",
	"CHOOSE_UPLOAD_UPLOAD_LI05": "Eternalize your message on 'One world, by the people of tomorrow'",
	"CHOOSE_UPLOAD_UPLOAD_LI06": "for technical specifications",
	"CHOOSE_UPLOAD_UPLOAD_LI06_CLICK": "click here",

	"CHOOSE_UPLOAD_MODAL_TITLE": "Technical specifications",
	"CHOOSE_UPLOAD_MODAL_INFO_01": "To upload your own design you can either:",
	"CHOOSE_UPLOAD_MODAL_INFO_02": "Create a document in your favorite vector editing program or download one of the blank templates.",
	"CHOOSE_UPLOAD_MODAL_DOWNLOAD_TITLE": "Download an empty starter file",
	"CHOOSE_UPLOAD_MODAL_DOWNLOAD_01": "Make sure you download the right file.",
	"CHOOSE_UPLOAD_MODAL_DOWNLOAD_INFO_SMALL": "Please note that the .ai files only work for Adobe Illustrator CS6 and above.",
	"CHOOSE_UPLOAD_MODAL_DOWNLOAD_SMALL_SQUARE":"110mm x 110mm small square:",
	"CHOOSE_UPLOAD_MODAL_DOWNLOAD_SMALL_RECTANGLE":"225mm x 52mm small Rectangle:",
	"CHOOSE_UPLOAD_MODAL_DOWNLOAD_LARGE_RECTANGLE":"450mm x 110mm large Rectangle:",
	"CHOOSE_UPLOAD_MODAL_DOWNLOAD_GROUP":"110mm x 110mm group piece:",
	"CHOOSE_UPLOAD_MODAL_OWN_TITLE":"Create your own file",
	"CHOOSE_UPLOAD_MODAL_OWN_INFO_01":"Make sure the file is 160dpi.",
	"CHOOSE_UPLOAD_MODAL_OWN_INFO_02": "Small Square or Group message part: 110mm x 110mm",
	"CHOOSE_UPLOAD_MODAL_OWN_INFO_03": "Small rectangular: 225mm x 52mm",
	"CHOOSE_UPLOAD_MODAL_OWN_INFO_04": "Large rectangular: 450mm x 110mm",
	"CHOOSE_UPLOAD_MODAL_CLOSE": "close",

	"UPLOAD_HELP": "Upload a png file with the following dimensions: 2835x693px",
	"LINK_EDITOR": "Go to the online editor",

	"GROUP_WARNING": "You can start editing already, but your work will not be saved.  Make sure to <a href='/en/buy'>buy credits</a> first.  Happy creating!",
	"TRYOUT_MESSAGE": "Try our editor and create a small individual message. Watch out, your message will not be saved. (Individual Large Message & Group Message are not available in this test editor)",
	"TRYOUT_BUYCREDIT": "Tested enough? Be part of history in the making.<br><a href='/en/buy'>Buy a credit</a>",

	"PREVIEW_TITLE": "Preview",
	"BUY_CREDIT": "Buy credit now",
	"VALIDATE": "Submit credit",

	"SAVE_FAILURE": "The code you have provided is invalid.",
	"ERROR_FILESIZE": "Error: filesize too big",
	"ERROR_DIMENSIONS": "Error: invalid dimensions",
	"ERROR_FILETYPE": "Error: invalid file type",

	"MOBILE_MESSAGE": "We're sorry, but the editor is not available for mobile devices.",

	"HELP_TEXT": "Show instructions",

	"SHAPES_HELP": "Switch between a square and rectangular design",
	"FONT_HELP": "Choose a font for your message",
	"DINGBAT_HELP": "Add icons to your design",
	"TEXT_HELP": "Text mode: double click on the canvas to create your message",
	"PAINTBRUSH_HELP": "Click icon and then hold your mouse button and draw",
	"PAPER_HELP": "This is the canvas on which you can create your design. Only the area within the dotted white line will be saved",

	"SHARE_ON_FACEBOOK": "Share<br>your<br>message",

	"UPLOAD_OWN_DESIGN": "Upload your own design",
	"UPLOAD_TEXT": "When uploading your design, please make sure that your image is:",
	"UPLOAD_EXTRA": "<p>size 2835 x 693 pixels<br>only uses black<br>saved as a PNG format</p>",
	"UPLOAD_EXTRA_SMALL": "<p>size 693 x 693 pixels or 1417 x 331 pixels<br>only uses black<br>saved as a PNG format</p>",
	"UPLOAD_TITLE_2" : "Upload your design",
	"UPLOAD_CHOOSE" : "Choose file",
	"UPLOAD_SUBMIT" : "<span class='l1'>Upload</span><span class='l2'>Your</span><span class='l3'>Design</span>",

	"UPLOAD_COLOR": "<h2>NOT good!</h2><p>Do not use colors<br>Only use black</p>",
	"UPLOAD_OK": "<h2>Good!</h2><p>Make your design with ONLY black.<br>The black will be laser engraved</p>",
	"UPLOAD_GRADIENT": "<h2>NOT good!</h2><p>Do not use gradients<br>&nbsp;</p>",

	"VALIDATE_SUCCESS_EMAIL_TITLE": "People of Tomorrow | Your design",
	"CREDIT_ALREADY_USED": "This credit is already used",
	"TOKEN_DOES_NOT_EXIST": "Code does not exist",
	"INCORRECT_TYPE": "Incorrect type of design",
	"ORDER_NOT_PAID": "Order not paid",

	"MISSING_PARAMETERS": "Please fill in your code first",


	"CHOOSE_SQUARE_TITLE": "Small square",
	"CHOOSE_SQUARE_INFO": "<p><br>Create your message with our easy to use <strong>editor</strong> on a <br><strong>square space</strong> of <br><strong>11 x 11cm</strong></p><p>Perfect for making your personal message last forever on the One World Bridge</p><p><strong>10 &euro;</strong></p>",

	"CHOOSE_RECTANGLE_TITLE": "Small rectangle",
	"CHOOSE_RECTANGLE_INFO": "<p><br>Create your message with our easy to use <strong>editor</strong> on a <strong>rectangular space</strong> of <br><strong>5 x 22cm</strong></p><p>Perfect for making your personal message last forever on the One World Bridge</p><p><strong>10 &euro;</strong></p>",

	"CHOOSE_LARGE_TITLE": "Large",
	"CHOOSE_LARGE_INFO": "<p>GO BIG!<br>Create a collaborative message with friends or your very own using our easy to use <strong>editor</strong><br><strong>11 x 45cm</strong></p><p>For the loud & proud, ensure your message is seen on the One World Bridge</p><p><strong>40 &euro;</strong></p>",

	"CHOOSE_CREATIVE_TITLE": "Large custom",
	"CHOOSE_CREATIVE_INFO": "<p>GET CREATIVE!<br><strong>Upload your own design</strong><br> to be engraved on this large space of <br><strong>11 x 45cm</strong></p><p>Perfect to be truly original and eternalize your message on the One World Bridge</p><p><strong>40 &euro;</strong></p>",

	"CREATE_TITLE": "Start creating your message",

	"SUBMIT_TITLE": "Please keep in mind that",
	"SUBMIT_DESCRIPTION": "<p>Once you submit your design you can't go back and edit it.<br>All submitted designs will be reviewed on their content so please keep your messages positive, respectful and free of ads.</p><p><strong>Go back up to redesign your message if desired.</strong></p>",

	"TERMS": "I agree with the <a href='en/conditions' target='_blank'>general conditions</a> &amp; <a href='en/specific' target='_blank'>specific conditions</a>",

	"FOLLOW_US": "<p>Start following us on facebook,<br>and see the design your friends made!</p>",

	"SPECIAL_ORDER": "<p>Please fill in your name and email so we can send you your personal certificate after your message has been validated.</p>",

	"UPLOAD_CREATIVE_TITLE": "Show your creativity",
	"UPLOAD_CREATIVE_DESCRIPTION": "<p class='narrow'><strong>YOU</strong> are the creative People of Tomorrow.<br>This is your opportunity to show your bounderless ability for creating a piece of art that will last forever.<br><br>We want <strong>YOUR</strong> design to go on the Bridge, created by Arne Quinze. A bridge, composed of 200.000 unique laser engraved quotes & designs.</p>",
	"CREATE_UPLOAD_YOUR_OWN": "Upload your own<br>or<br>use our editor",
	"UPLOAD_CREATIVE_TECHNICAL_SPECS_TITLE": "Technical specifications of your file",
	"UPLOAD_CREATIVE_TECHNICAL_SPECS_DO": "<p>Size: 2835 x 693 pixels<br>File format: PNG<br>Only black and transparent</p>",
	"UPLOAD_CREATIVE_TECHNICAL_SPECS_DONT": "<p>Don't use gradients<br>Don't use colors</p>",
	"UPLOAD_CREATIVE_TECHNICAL_SPECS_DO_TFL": "<p>Size: 2835 x 693 pixels | File format: PNG | Only black and transparent</p>",
	"UPLOAD_CREATIVE_TECHNICAL_SPECS_DONT_TFL": "<p>Don't use gradients | Don't use colors</p>"
}
