{
	"TITLE": "Beeld",
	"NEW_TEXT": "Voeg nieuwe tekst toe",
	"ALIGN_LEFT": "Links uitlijnen",
	"ALIGN_CENTER": "Centraal uitlijnen",
	"ALIGN_RIGHT": "Rechts uitlijnen",
	"BOLD": "Vet",
	"ITALIC": "Italic",
	"SAVE": "Opslaan",
	"CANCEL": "Annuleer",
	"MODAL_WRAP": "Plaats tekst achter",
	"MODAL_CHARACTERS": "karakters",
	"NEW_MODAL_TITLE": " Vul hier je boodschap in",
	"EDIT_MODAL_TITLE": "Bewerk je boodschap",
	"PLACEHOLDER_TEXT": "Nieuwe tekst...",
	"PAINTBRUSH": "Verfborstel",
	"BRUSH_SIZE": "Grootte verfborstel",
	"PREVIEW": "Toon voorbeeld",
	"SUBMIT": "Stuur je ontwerp door",
	"SUBMIT_EXTRA": "Eens je ontwerp verstuurd is kan er niet meer teruggekeerd worden voor aanpassingen...",
	"NO_BACKGROUND": "Geen achtergrond",
	"SELECT_SHAPE": "Selecteer vorm",
	"SQUARE": "110x110mm",
	"RECTANGLE": "225x52mm",
	"SELECT_FONT": "Selecteer font",
	"SELECT_DINGBAT": "Selecteer icon",
	"SELECT_BACKGROUND": "Selecteer achtergrond",
	"UPLOAD_DESIGN": "Laad je zelfgemaakte ontwerp op ",
	"CONFIRM_TITLE": "Bedankt voor je ontwerp!",
	"CONFIRM_BODY": "Je krijgt <u>binnen 7 dagen </u> een bevestigingsmail als je ontwerp aanvaard werd,",
	"CONFIRM_EXTRA": "In het geval je ontwerp niet aanvaard werd krijg je een tweede kans om je ontwerp te verdedigen.",
	"SUBMIT_BUTTON": "<span class='l1'>Verzend</span> <span class='l2'>nu</span>",
	"HAVE_CODE": "Ik heb al een code",
	"UPLOAD_CODE_GO": "GA",

	"SPECIAL_REQUEST": "<p>Als je speciale eisen hebt voor je ontwerp of je wilt iets maken wat buiten de capaciteiten van de editor ligt, stuur dan een mail naar <a href='mailto:contact@peopleoftomorrow.com'>contact@peopleoftomorrow.com</a>. Voorbeelden hiervoor zijn schoolprojecten, buitenformaat ontwerpen en dergelijke.</p>",

	"BREADCRUMB_CHOOSE_TYPE": "Selecteer type",
	"BREADCRUMB_CHOOSE_UPLOAD": "Selecteer methode",
	"BREADCRUMB_UPLOAD": "Upload",
	"BREADCRUMB_EDITOR": "Editor",
	"BREADCRUMB_SUBMIT": "Vul krediet in",
	"BREADCRUMB_CONFIRM": "Bevestigen",
	"BACKGROUND_HELP": "Selecteer je achtergrond",

	"CHOOSE_TITLE": "Selecteer de grootte van je ontwerp",
	"CHOOSE_TITLE_EXTRA": "(een krediet gebruikt voor een verkeerd formaat zal niet werken)",
	"CHOOSE_SMALL": "Individuele boodschap",
	"CHOOSE_SMALL_MORE_INFO": "Ik heb (een) krediet(en) voor:",
	"CHOOSE_SMALL_MORE_INFO_SECOND": "Een individuele boodschap",
	"CHOOSE_SMALL_EXTRA": "(10 Euro)",
	"CHOOSE_LARGE": "Individueel groot",
	"CHOOSE_LARGE_MORE_INFO_SECOND": "Een grote boodschap",
	"CHOOSE_LARGE_EXTRA": "(40 Euro)",
	"CHOOSE_GROUP": "Groepsboodschap",
	"CHOOSE_GROUP_MORE_INFO": "Ik heb 1 van de 4 kredieten voor:",
	"CHOOSE_GROUP_MORE_INFO_SECOND": "Een groepsboodschap",
	"CHOOSE_GROUP_EXTRA": "(35 Euro)",
	"CHOOSE_GROUP_MORE_INFO2": "(4 individuele kredieten voor de groep kunnen apart ontworpen worden en zullen automatisch naast elkaar geplaatst worden)",

	"CHOOSE_UPLOAD_TITLE": "Selecteer methode",
	"CHOOSE_UPLOAD": "Laad je eigen ontwerp op",
	"CHOOSE_EDIT": "Gebruik de online editor",
	"CHOOSE_UPLOAD_EDITOR_TITLE": "Creëer je boodschap hier",
	"CHOOSE_UPLOAD_EDITOR_LI01": "Creëer je boodschap hier",
	"CHOOSE_UPLOAD_EDITOR_LI02": "Voeg tekeningen of een achtergrond toe",
	"CHOOSE_UPLOAD_EDITOR_LI03": "Stuur je ontwerp door en vul krediet in",
	"CHOOSE_UPLOAD_EDITOR_LI04": "Vereeuwig je boodschap op 'One world, by the people of tomorrow'",
	"CHOOSE_UPLOAD_UPLOAD_TITLE": "Als je extreem creatief wil zijn",
	"CHOOSE_UPLOAD_UPLOAD_LI01": "Creëer je eigen ontwerp in Illustrator, Photoshop of een ander programma",
	"CHOOSE_UPLOAD_UPLOAD_LI02": "Zorg ervoor dat de vereiste afmetingen en technische specificaties kloppen",
	"CHOOSE_UPLOAD_UPLOAD_LI03": "Sla je ontwerp op als een  .png bestand en stuur het door",
	"CHOOSE_UPLOAD_UPLOAD_LI04": "Stuur je ontwerp door en vul krediet in",
	"CHOOSE_UPLOAD_UPLOAD_LI05": " Vereeuwig je boodschap op 'One world, by the people of tomorrow'",
	"CHOOSE_UPLOAD_UPLOAD_LI06": "voor technische specificaties",
	"CHOOSE_UPLOAD_UPLOAD_LI06_CLICK": "klik hier",

	"CHOOSE_UPLOAD_MODAL_TITLE": "Technische specificaties",
	"CHOOSE_UPLOAD_MODAL_INFO_01": "Om je eigen ontwerp door te sturen kan je: ",
	"CHOOSE_UPLOAD_MODAL_INFO_02": "Een document aanmaken in je favoriete vectorprogramma of een blanco sjabloon downloaden.",
	"CHOOSE_UPLOAD_MODAL_DOWNLOAD_TITLE": "Download hier een blanco sjabloon",
	"CHOOSE_UPLOAD_MODAL_DOWNLOAD_01": "Zorg ervoor dat je het juiste bestand download.",
	"CHOOSE_UPLOAD_MODAL_DOWNLOAD_INFO_SMALL": "Let op: de .ai bestanden werken enkel voor Adobe Illustrator CS6 en hoger.",
	"CHOOSE_UPLOAD_MODAL_DOWNLOAD_SMALL_SQUARE":"110mm x 110mm klein vierkant:",
	"CHOOSE_UPLOAD_MODAL_DOWNLOAD_SMALL_RECTANGLE":"225mm x 52mm klein rechthoekig:",
	"CHOOSE_UPLOAD_MODAL_DOWNLOAD_LARGE_RECTANGLE":"450mm x 110mm groot rechthoekig:",
	"CHOOSE_UPLOAD_MODAL_DOWNLOAD_GROUP":"110mm x 110mm groepsontwerp:",
	"CHOOSE_UPLOAD_MODAL_OWN_TITLE":"Creëer je eigen bestand",
	"CHOOSE_UPLOAD_MODAL_OWN_INFO_01":"Zorg ervoor dat de resolutie 160dpi is.",
	"CHOOSE_UPLOAD_MODAL_OWN_INFO_02": "Klein vierkant of deel groepsontwerp: 110mm x 110mm",
	"CHOOSE_UPLOAD_MODAL_OWN_INFO_03": "Klein rechthoekig: 225mm x 52mm",
	"CHOOSE_UPLOAD_MODAL_OWN_INFO_04": "Groot rechthoekig: 450mm x 110mm",
	"CHOOSE_UPLOAD_MODAL_CLOSE": "sluit",

	"UPLOAD_HELP": "Laad een .png bestand op met de volgende afmetingen: 2835x693px",
	"LINK_EDITOR": "Ga naar de online editor",

	"GROUP_WARNING": "Je kan een ontwerp aanmaken maar het zal niet opgeslaan worden. Zorg ervoor dat je eerst <a href='/en/buy'>kredieten koopt</a>.  Veel ontwerpplezier!",
	"TRYOUT_MESSAGE": "Probeer onze editor uit en maak een kleine boodschap aan. Let op, je boodschap wordt niet opgeslagen. (Individuele grote ontwerpen & groepsontwerpen zijn in deze testeditor niet beschikbaar)",
	"TRYOUT_BUYCREDIT": "Genoeg getest? Maak mee geschiedenis.<br><a href='/en/buy'>Koop een krediet</a>",

	"PREVIEW_TITLE": "Voorbeeld",
	"BUY_CREDIT": "Koop een krediet",
	"VALIDATE": "Gebruik krediet",

	"SAVE_FAILURE": "De code die je hebt ingevuld is ongeldig.",
	"ERROR_FILESIZE": "Fout: bestand is te groot",
	"ERROR_DIMENSIONS": "Fout: verkeerde afmetingen",
	"ERROR_FILETYPE": "Fout: verkeerd bestandstype",

	"MOBILE_MESSAGE": "Het spijt ons, maar de editor is niet beschikbaar voor mobiele apparaten.",

	"HELP_TEXT": "Toon instructies",

	"SHAPES_HELP": "Wissel tussen een vierkant en rechthoekig ontwerp",
	"FONT_HELP": "Kies een font voor je boodschap",
	"DINGBAT_HELP": "Voeg afbeeldingen toe aan je ontwerp",
	"TEXT_HELP": "Text modus: dubbelklik op het canvas om je boodschap aan te maken",
	"PAINTBRUSH_HELP": "Klik op het icon, houd de muisknop ingedrukt en teken",
	"PAPER_HELP": "Dit is het canvas waar je je ontwerp op zult maken. Enkel het gedeelte binnen de witte stippellijnen zal opgeslaan worden",

	"SHARE_ON_FACEBOOK": "Deel <br>jouw<br> boodschap",

	"UPLOAD_OWN_DESIGN": "Laad je eigen ontwerp op",
	"UPLOAD_TEXT": "Als je je eigen ontwerp oplaad, zorg ervoor dat je afbeelding:",
	"UPLOAD_EXTRA": "<p> 2835 x 693 pixels groot is<br>enkel zwart gebruikt<br>opgeslaan is als een PNG bestand</p>",
	"UPLOAD_EXTRA_SMALL": "<p>693 x 693 pixels of 1417 x 331 pixels groot is<br>enkel zwart gebruikt<br>opgeslaan is als een PNG bestand</p>",
	"UPLOAD_TITLE_2" : "Laad je ontwerp op",
	"UPLOAD_CHOOSE" : "Kies bestand",
	"UPLOAD_SUBMIT" : "<span class='l1'>Upload</span><span class='l2'>Je</span><span class='l3'>Ontwerp</span>",

	"UPLOAD_COLOR": "<h2>NIET goed!</h2><p>Gebruik geen kleuren<br>Gebruik enkel zwart</p>",
	"UPLOAD_OK": "<h2>Goed!</h2><p>Maak je ontwerp in het zwart aan.<br>Het zwarte gedeelte word met de laser gegraveerd</p>",
	"UPLOAD_GRADIENT": "<h2>NIET goed!</h2><p>Gebruik geen gradients<br>&nbsp;</p>",

	"VALIDATE_SUCCESS_EMAIL_TITLE": "People of Tomorrow | Jouw ontwerp",
	"CREDIT_ALREADY_USED": "Dit krediet is reeds gebruikt",
	"TOKEN_DOES_NOT_EXIST": "Code bestaat niet",
	"INCORRECT_TYPE": "Incorrect ontwerptype",
	"ORDER_NOT_PAID": "Bestelling niet betaald",

	"MISSING_PARAMETERS": "Vul aub eerst je code in",


	"CHOOSE_SQUARE_TITLE": "Klein vierkant",
	"CHOOSE_SQUARE_INFO": "<p><br>Maak je boodschap aan met onze <strong>editor</strong> op een <br><strong>vierkante ruimte</strong> van <br><strong>11 x 11cm</strong></p><p>Perfect om jouw boodschap te vereeuwigen op de One World Bridge</p><p><strong>10 &euro;</strong></p>",

	"CHOOSE_RECTANGLE_TITLE": "Klein rechthoekig",
	"CHOOSE_RECTANGLE_INFO": "<p><br>Maak je boodschap aan met onze  <strong>editor</strong> op een <strong>rechthoekige ruimte</strong> van <br><strong>5 x 22cm</strong></p><p>Perfect om jouw boodschap te vereeuwigen op de One World Bridge</p><p><strong>10 &euro;</strong></p>",

	"CHOOSE_LARGE_TITLE": "Groot",
	"CHOOSE_LARGE_INFO": "<p>GA GROOTS!<br>Creëer samen met je vrienden of voor jezelf een ontwerp met onze intuïtieve <strong>editor</strong><br><strong>11 x 45cm</strong></p><p>Zorg ervoor dat jouw boodschap gezien word op de One World Bridge</p><p><strong>40 &euro;</strong></p>",

	"CHOOSE_CREATIVE_TITLE": "Eigen ontwerp groot",
	"CHOOSE_CREATIVE_INFO": "<p>WORD CREATIEF!<br><strong>Laad je eigen ontwerp op</strong><br> om gegraveerd te worden op <br><strong>11 x 45cm</strong></p><p>Perfect om jouw unieke boodschap te vereeuwigen op de One World Bridge</p><p><strong>40 &euro;</strong></p>",

	"CREATE_TITLE": "Begin je boodschap aan te maken",

	"SUBMIT_TITLE": "Onthoudt dat",
	"SUBMIT_DESCRIPTION": "<p>eens je ontwerp doorgestuurd is, dit niet meer kan aangepast worden.<br>Alle boodschappen worden geselcteerd op basis van inhoud dus houd je boodschap positief, respectvol en zonder reclame.</p><p><strong>Keer terug om je booschap aan te passen indien nodig.</strong></p>",

	"TERMS": "Ik stem in met de <a href='en/conditions' target='_blank'>algemene voorwaarden</a> &amp; <a href='en/specific' target='_blank'>specifieke voorwaarden</a>",

	"FOLLOW_US": "<p>Volg ons op facebook,<br>and zie welke ontwerpen je vrienden gemaakt hebben!</p>",

	"SPECIAL_ORDER": "<p>Vul je naam en email adres in zodat we je jouw persoonlijke certificaat kunnen toesturen zodra je ontwerp is goedgekeurd.</p>",

	"UPLOAD_CREATIVE_TITLE": "Toon je creativiteit",
	"UPLOAD_CREATIVE_DESCRIPTION": "<p class='narrow'><strong>JULLIE</strong> zijn de creatieve People of Tomorrow.<br>Dit is jullie kans om te tonen dat jullie mogelijkheid tot het creëren van een tijdloos kunstwerk grenzeloos is.<br><br>We willen  <strong>JOUW</strong> ontwerp op de Tomorrowland Bridge, gecreëerd door Arne Quinze. Een brug, opgebouwd uit 200.000 unieke laser gegraveerde quotes & ontwerpen.</p>",
	"CREATE_UPLOAD_YOUR_OWN": "Maak je eigen ontwerp en stuur het door",
	"UPLOAD_CREATIVE_TECHNICAL_SPECS_TITLE": "Technische specificaties van je bestand",
	"UPLOAD_CREATIVE_TECHNICAL_SPECS_DO": "<p>Grootte: 2835 x 693 pixels<br>Bestandsformaat: PNG<br>Enkel zwart en transparant</p>",
	"UPLOAD_CREATIVE_TECHNICAL_SPECS_DONT": "<p>Gebruik geen gradients<br>Gebruik geen kleuren</p>"
}
